# +----------------------------------------------------------------------+
# |                 This is an AcuSolve input file.                      |
# |                                                                      |
# |                Generated by: HyperworksCFD 2020                      |
# +----------------------------------------------------------------------+


# +----------------------------------------------------------------------+
# | Include                                                              |
# +----------------------------------------------------------------------+

INCLUDE {
    file                                = "MESH.DIR/meshsets.inc"
}

# +----------------------------------------------------------------------+
# | Problem Description                                                  |
# +----------------------------------------------------------------------+

ANALYSIS {
    title                               = "MAT100D02v1"
    type                                = static
}

EQUATION {
    flow                                = navier_stokes
    turbulence                          = spalart_allmaras
    absolute_pressure_offset            = 0
    mesh                                = eulerian
}

# +----------------------------------------------------------------------+
# | Auto Solution Strategy                                               |
# +----------------------------------------------------------------------+

AUTO_SOLUTION_STRATEGY {
    max_time_steps                      = 100
    initial_time_increment              = 10000000000
    convergence_tolerance               = 0.001
    num_krylov_vectors                  = 10
    flow                                = on
    turbulence                          = on
    relaxation_factor                   = 0.4
}

# +----------------------------------------------------------------------+
# | Time Integration                                                     |
# +----------------------------------------------------------------------+

TIME_INTEGRATION {
    initialize_stokes                   = on
    initialize_turbulence               = on
}

# +----------------------------------------------------------------------+
# | Density Model                                                        |
# +----------------------------------------------------------------------+

DENSITY_MODEL( "Mat100" ) {
    type                                = constant
    density                             = 100
    expansivity_type                    = constant
    expansivity                         = 1
    reference_temperature               = 273.14
    reference_pressure                  = 0
    specific_heat_ratio                 = 1.4
    gas_constant                        = 286.6
    isothermal_compressibility          = 0
    curve_fit_variable                  = x_coordinate
}

# +----------------------------------------------------------------------+
# | Conductivity Model                                                   |
# +----------------------------------------------------------------------+

CONDUCTIVITY_MODEL( "Mat100" ) {
    type                                = constant
    conductivity                        = 0
    prandtl_number                      = 0.71
    curve_fit_variable                  = x_coordinate
    anisotropic_curve_fit_variable      = x_coordinate
    turbulent_prandtl_number            = 0.91
}

# +----------------------------------------------------------------------+
# | Specific Heat Model                                                  |
# +----------------------------------------------------------------------+

SPECIFIC_HEAT_MODEL( "Mat100" ) {
    type                                = constant
    specific_heat                       = 1
    curve_fit_variable                  = temperature
    piecewise_polynomial_variable       = temperature
    latent_heat_type                    = none
    latent_heat                         = 0
    latent_heat_temperature             = 0
    latent_heat_temperature_interval    = 0
}

# +----------------------------------------------------------------------+
# | Viscosity Model                                                      |
# +----------------------------------------------------------------------+

VISCOSITY_MODEL( "Mat100" ) {
    type                                = constant
    viscosity                           = 0.01
    power_law_viscosity                 = 0
    power_law_time_constant             = 0
    power_law_index                     = 1
    power_law_lower_strain_rate         = 0
    bingham_viscosity                   = 1
    bingham_yield_stress                = 0
    bingham_stress_growth_exponent      = 500
    bingham_time_constant               = 1
    bingham_index                       = 1
    bingham_infinite_shear_viscosity    = 0
    carreau_zero_shear_viscosity        = 0
    carreau_infinite_shear_viscosity    = 0
    carreau_time_constant               = 0
    carreau_index                       = 1
    carreau_transition_index            = 2
    curve_fit_variable                  = x_coordinate
}

# +----------------------------------------------------------------------+
# | Material Model                                                       |
# +----------------------------------------------------------------------+

MATERIAL_MODEL( "Mat100" ) {
    type                                = fluid
    density_model                       = "Mat100"
    conductivity_model                  = "Mat100"
    specific_heat_model                 = "Mat100"
    viscosity_model                     = "Mat100"
}

# +----------------------------------------------------------------------+
# | Element Set                                                          |
# +----------------------------------------------------------------------+

ELEMENT_SET( "DefaultPart SolidBody_1_1" ) {
    volume_sets                         = { "MAT100D02v1.SolidBody_1_1.tet4","MAT100D02v1.SolidBody_1_1.wedge6" }
    material_model                      = "Mat100"
    medium                              = fluid
    quadrature                          = full
    num_shell_layers                    = 1
    shell_thickness_type                = constant
    viscous_heating                     = off
    compression_heating                 = off
    enhanced_strain                     = off
    num_enhanced_modes                  = 0
    residual_control                    = on
    oscillation_control                 = on
    mesh_distortion_correction_factor   = 0
    mesh_distortion_tolerance           = 0
}

# +----------------------------------------------------------------------+
# | Nodal Initial Condition                                              |
# +----------------------------------------------------------------------+

NODAL_INITIAL_CONDITION( "pressure" ) {
    selection_type                      = all
    type                                = constant
    default_value                       = 0
    precedence                          = 0
    satisfy_boundary_condition          = off
}

# +----------------------------------------------------------------------+
# | Simple Boundary Condition                                            |
# +----------------------------------------------------------------------+

SIMPLE_BOUNDARY_CONDITION( "Default Wall" ) {
    surface_sets                        = { "MAT100D02v1.SurfaceSet_2114425791.tria3.SolidBody_1_1.wedge6","MAT100D02v1.SurfaceSet_4252425245.tria3.SolidBody_1_1.wedge6" }
    type                                = auto_wall
    precedence                          = 1
    turbulence_wall_type                = wall_function
    roughness_height                    = 0
    wall_function_friction_factor       = 1
    mesh_displacement_type              = fixed
    active_type                         = all
    split_internal_surfaces             = on
    gap_factor                          = 1
    gap                                 = 0
    crease_angle                        = 90
}

# +----------------------------------------------------------------------+
# | Simple Boundary Condition                                            |
# +----------------------------------------------------------------------+

SIMPLE_BOUNDARY_CONDITION( "Inlet" ) {
    surface_sets                        = { "MAT100D02v1.SurfaceSet_677566176.quad4.SolidBody_1_1.wedge6","MAT100D02v1.SurfaceSet_677566176.tria3.SolidBody_1_1.tet4" }
    type                                = inflow
    inflow_type                         = velocity
    precedence                          = 1
    inflow_velocity_type                = cartesian
    x_velocity                          = 0
    y_velocity                          = 0
    z_velocity                          = 1
    eddy_viscosity                      = 0.036742
    non_reflecting_factor               = 0
    mesh_displacement_type              = fixed
    active_type                         = all
    turbulence_input_type               = auto
    turbulence_intensity_type           = auto
    percent_turbulence_intensity        = 0
    turbulence_velocity_scale           = 0
    turbulence_length_scale             = 0
    turbulence_viscosity_ratio          = 1
    turbulence_flow_type                = internal
}

# +----------------------------------------------------------------------+
# | Surface Output                                                       |
# +----------------------------------------------------------------------+

SURFACE_OUTPUT( "Inlet - Output" ) {
    surface_sets                        = { "MAT100D02v1.SurfaceSet_677566176.quad4.SolidBody_1_1.wedge6","MAT100D02v1.SurfaceSet_677566176.tria3.SolidBody_1_1.tet4" }
    integrated_output_frequency         = 1
    integrated_output_time_interval     = 0
    statistics_output_frequency         = 1
    statistics_output_time_interval     = 0
    nodal_output_frequency              = 0
    nodal_output_time_interval          = 0
    num_saved_states                    = 0
}

# +----------------------------------------------------------------------+
# | Simple Boundary Condition                                            |
# +----------------------------------------------------------------------+

SIMPLE_BOUNDARY_CONDITION( "Outlet" ) {
    surface_sets                        = { "MAT100D02v1.SurfaceSet_2838655795.quad4.SolidBody_1_1.wedge6","MAT100D02v1.SurfaceSet_2838655795.tria3.SolidBody_1_1.tet4" }
    type                                = outflow
    back_flow_conditions                = off
    precedence                          = 1
    pressure                            = 101325
    pressure_loss_factor                = 0
    hydrostatic_pressure                = off
    hydrostatic_pressure_origin         = { 0, 0, 0 }
    non_reflecting_factor               = 0
    mesh_displacement_type              = fixed
    active_type                         = all
}

# +----------------------------------------------------------------------+
# | Surface Output                                                       |
# +----------------------------------------------------------------------+

SURFACE_OUTPUT( "Outlet - Output" ) {
    surface_sets                        = { "MAT100D02v1.SurfaceSet_2838655795.quad4.SolidBody_1_1.wedge6","MAT100D02v1.SurfaceSet_2838655795.tria3.SolidBody_1_1.tet4" }
    integrated_output_frequency         = 1
    integrated_output_time_interval     = 0
    statistics_output_frequency         = 1
    statistics_output_time_interval     = 0
    nodal_output_frequency              = 0
    nodal_output_time_interval          = 0
    num_saved_states                    = 0
}

# +----------------------------------------------------------------------+
# | Nodal Output                                                         |
# +----------------------------------------------------------------------+

NODAL_OUTPUT {
    output_frequency                    = 100
    output_initial_condition            = off
    continuous_output                   = off
}

# +----------------------------------------------------------------------+
# | Surface Output                                                       |
# +----------------------------------------------------------------------+

SURFACE_OUTPUT( "Sortie" ) {
    surface_sets                        = { "MAT100D02v1.SurfaceSet_2838655795.quad4.SolidBody_1_1.wedge6","MAT100D02v1.SurfaceSet_2838655795.tria3.SolidBody_1_1.tet4" }
    integrated_output_frequency         = 1
    integrated_output_time_interval     = 0
    statistics_output_frequency         = 1
    statistics_output_time_interval     = 0
    nodal_output_frequency              = 0
    nodal_output_time_interval          = 0
    num_saved_states                    = 0
}

# +----------------------------------------------------------------------+
# | Surface Output                                                       |
# +----------------------------------------------------------------------+

SURFACE_OUTPUT( "Transition" ) {
    surface_sets                        = { "MAT100D02v1.SurfaceSet_2114425791.tria3.SolidBody_1_1.wedge6" }
    integrated_output_frequency         = 1
    integrated_output_time_interval     = 0
    statistics_output_frequency         = 1
    statistics_output_time_interval     = 0
    nodal_output_frequency              = 0
    nodal_output_time_interval          = 0
    num_saved_states                    = 0
}

# +----------------------------------------------------------------------+
# | Surface Output                                                       |
# +----------------------------------------------------------------------+

SURFACE_OUTPUT( "Entree" ) {
    surface_sets                        = { "MAT100D02v1.SurfaceSet_677566176.quad4.SolidBody_1_1.wedge6","MAT100D02v1.SurfaceSet_677566176.tria3.SolidBody_1_1.tet4" }
    integrated_output_frequency         = 1
    integrated_output_time_interval     = 0
    statistics_output_frequency         = 1
    statistics_output_time_interval     = 0
    nodal_output_frequency              = 0
    nodal_output_time_interval          = 0
    num_saved_states                    = 0
}

# +----------------------------------------------------------------------+
# | Run                                                                  |
# +----------------------------------------------------------------------+

RUN {
}
