acuRun: Sun Mar 14 08:21:29 2021
acuRun: acuRun 
acuRun: Processing run 1 ...
acuRun: Hostname = INSIC-IAO301-07
acuRun: Release  = 2020.1
acuRun: Core auto detection found 12 cores
acuRun: num_threads is reduced from (12) to (4)
acuRun: Resetting num_subdomains to 4
acuRun: num_processors (4) equal to num_threads (4)
acuRun: Resetting message_passing_type to openmp
acuRun: Add C:/Program Files/Altair/2020/hwcfdsolvers/acusolve/win64/bin to PATH
acuRun: set PATH=C:/Program Files/Altair/2020/hwcfdsolvers/acusolve/win64/bin;C:\Program Files\Altair\2020\hwcfdsolvers\acusolve\win64\bin;C:\Program Files\Altair\2020\hwcfdsolvers\acusolve\win64\base\bin;C:\Program Files\Altair\2020\hwcfdsolvers\acusolve\win64\base\DLLs;C:\Program Files\Altair\2020\hwcfdsolvers\acusolve\win64\base\lib\site-packages;C:\Program Files\Altair\2020\hwcfdsolvers\acusolve\win64\abaqus-odb\lib;C:\Program Files\Altair\2020\hwcfdsolvers\acusolve\win64\perl\bin;C:\Program Files\Altair\2020\hwdesktop\common\python\python3.5\win64\DLLs;C:\Program Files\Altair\2020\hwdesktop\hwx\bin\win64;C:\Program Files\Altair\2020\hwdesktop\hw\bin\win64;C:\Program Files (x86)\NVIDIA Corporation\PhysX\Common;C:\Program Files (x86)\Common Files\Oracle\Java\javapath;C:\Program Files\Microsoft MPI\Bin\;C:\Windows\system32;C:\Windows;C:\Windows\System32\Wbem;C:\Windows\System32\WindowsPowerShell\v1.0\;C:\Windows\System32\OpenSSH\;C:\Program Files\MATLAB\R2020b\runtime\win64;C:\Program Files\MATLAB\R2020b\bin;C:\Program Files (x86)\Windows Kits\8.1\Windows Performance Toolkit\;C:\Program Files\Microsoft SQL Server\Client SDK\ODBC\110\Tools\Binn\;C:\Program Files (x86)\Microsoft SQL Server\120\Tools\Binn\;C:\Program Files\Microsoft SQL Server\120\Tools\Binn\;C:\Program Files\Microsoft SQL Server\120\DTS\Binn\;C:\Program Files (x86)\Microsoft SQL Server\120\Tools\Binn\ManagementStudio\;C:\Program Files (x86)\Microsoft SQL Server\120\DTS\Binn\;C:\Users\lerquet1u\AppData\Local\Microsoft\WindowsApps;;C:\Program Files\Altair\2020\hwdesktop\common\python\python3.5\win64\lib\site-packages\pywin32_system32;C:/Program Files/Altair/2020/hwdesktop\hm\bin\win64;C:\Program Files\Altair\2020\hwdesktop\hwx\plugins\hwd\profiles\HyperworksCfd\acusolve\bin\win64
acuRun: Run acuPrep ...
acuRun: "C:/Program Files/Altair/2020/hwcfdsolvers/acusolve/win64/bin/acuPrep".exe -nst 4 -nsd 4 
acuPrep:                       Date = Sun Mar 14 08:21:29 2021
acuPrep:                    Problem = M100D8v1
acuPrep:                        Run = 1
acuPrep:                   Hostname = INSIC-IAO301-07
acuPrep:                   Platform = Windows 8/10 v6.2.9200 x64
acuPrep:                    Machine = win64
acuPrep:                   CPU name = Intel(R) Xeon(R) W-1250P CPU @ 4.10GHz
acuPrep:                  CPU speed = 4100 MHz
acuPrep:                  RAM space = 8259 Mbytes
acuPrep:                 Swap space = 18531 Mbytes
acuPrep:                    Release = 2020.1
acuPrep:               Release date = Aug 21 2020
acuPrep:                  Build Tag = 1030241enyas000_WCL:73428
acuPrep:       Number of subdomains = 4
acuPrep:          Number of threads = 4
acuPrep:  Number of AcuPrep threads = 8
acuPrep:          Working directory = ACUSIM.DIR
acuPrep: ------------------------------------------------------------------
acuPrep: Reading INCLUDE
acuPrep: Processing INCLUDE
acuPrep: INCLUDE: File MESH.DIR/meshsets.inc
acuPrep: Reading COORDINATE
acuPrep: Reading VOLUME_SET( "M100D8v1.SolidBody_1_1.tet4" )
acuPrep: Reading VOLUME_SET( "M100D8v1.SolidBody_1_1.wedge6" )
acuPrep: Reading SURFACE_SET( "M100D8v1.SurfaceSet_2838655795.tria3.SolidBody_1_1.tet4" )
acuPrep: Reading SURFACE_SET( "M100D8v1.SurfaceSet_677566176.tria3.SolidBody_1_1.tet4" )
acuPrep: Reading SURFACE_SET( "M100D8v1.SurfaceSet_4252425245.tria3.SolidBody_1_1.wedge6" )
acuPrep: Reading SURFACE_SET( "M100D8v1.SurfaceSet_2114425791.tria3.SolidBody_1_1.wedge6" )
acuPrep: Reading SURFACE_SET( "M100D8v1.SurfaceSet_2838655795.quad4.SolidBody_1_1.wedge6" )
acuPrep: Reading SURFACE_SET( "M100D8v1.SurfaceSet_677566176.quad4.SolidBody_1_1.wedge6" )
acuPrep: Reading ANALYSIS
acuPrep: Reading EQUATION
acuPrep: Reading AUTO_SOLUTION_STRATEGY
acuPrep: Processing AUTO_SOLUTION_STRATEGY
acuPrep: AUTO_SOLUTION_STRATEGY: creating and including "M100D8v1.ss.inc" ...
acuPrep: Reading TIME_SEQUENCE
acuPrep: Reading STAGGER( "flow" )
acuPrep: Reading STAGGER( "turbulence" )
acuPrep: Reading TIME_INCREMENT
acuPrep: Reading TIME_INTEGRATION
acuPrep: Reading LINEAR_SOLVER_PARAMETERS
acuPrep: Reading CONVERGENCE_CHECK_PARAMETERS
acuPrep: Reading ALGEBRAIC_MULTIGRID_PARAMETERS
acuPrep: Reading TIME_INTEGRATION
acuPrep: *** WARNING: Multiple command issue
acuPrep: Reading DENSITY_MODEL( "Mat100" )
acuPrep: Reading CONDUCTIVITY_MODEL( "Mat100" )
acuPrep: Reading SPECIFIC_HEAT_MODEL( "Mat100" )
acuPrep: Reading VISCOSITY_MODEL( "Mat100" )
acuPrep: Reading MATERIAL_MODEL( "Mat100" )
acuPrep: Reading ELEMENT_SET( "DefaultPart SolidBody_1_1" )
acuPrep: Reading NODAL_INITIAL_CONDITION( "pressure" )
acuPrep: Reading SIMPLE_BOUNDARY_CONDITION( "Default Wall" )
acuPrep: Reading SIMPLE_BOUNDARY_CONDITION( "Outlet" )
acuPrep: Reading SURFACE_OUTPUT( "Outlet - Output" )
acuPrep: Reading SIMPLE_BOUNDARY_CONDITION( "Inlet" )
acuPrep: Reading SURFACE_OUTPUT( "Inlet - Output" )
acuPrep: Reading NODAL_OUTPUT
acuPrep: Reading DERIVED_QUANTITY_OUTPUT
acuPrep: Reading SURFACE_OUTPUT( "entree" )
acuPrep: Reading SURFACE_OUTPUT( "transition" )
acuPrep: Reading SURFACE_OUTPUT( "sortie" )
acuPrep: Reading RUN
acuPrep: Processing RUN
acuPrep: Processing ANALYSIS
acuPrep: Processing EQUATION
acuPrep: Processing FIELD( "none" )
acuPrep: Processing TURBULENCE_MODEL_PARAMETERS
acuPrep: Processing USER_GLOBAL_DATA( "none" )
acuPrep: Processing MULTIPLIER_FUNCTION( "none" )
acuPrep: Processing RADIATION
acuPrep: Processing SOLAR_RADIATION
acuPrep: Processing PARTICLE_TRACE
acuPrep: Processing EXTERNAL_CODE
acuPrep: Processing REFERENCE_FRAME( "none" )
acuPrep: Processing MESH_MOTION( "none" )
acuPrep: Processing OPTIMIZATION
acuPrep: Processing TIME_SEQUENCE
acuPrep: Processing STAGGER( "flow" )
acuPrep: Processing STAGGER( "turbulence" )
acuPrep: Processing TIME_INCREMENT
acuPrep: Processing CONVERGENCE_CHECK_PARAMETERS
acuPrep: Processing ALGEBRAIC_MULTIGRID_PARAMETERS
acuPrep: Processing TIME_INTEGRATION
acuPrep: Processing LINEAR_SOLVER_PARAMETERS
acuPrep: Processing GRAVITY( "none" )
acuPrep: Processing MOMENTUM_SOURCE( "none" )
acuPrep: Processing ROTATION_FORCE( "none" )
acuPrep: Processing MASS_HEAT_SOURCE( "none" )
acuPrep: Processing VOLUME_HEAT_SOURCE( "none" )
acuPrep: Processing MASS_SPECIES_SOURCE( "none" )
acuPrep: Processing VOLUME_SPECIES_SOURCE( "none" )
acuPrep: Processing MASS_FIELD_SOURCE( "none" )
acuPrep: Processing VOLUME_FIELD_SOURCE( "none" )
acuPrep: Processing WAVE_DAMPING_SOURCE
acuPrep: Processing BODY_FORCE( "none" )
acuPrep: Processing DENSITY_MODEL( "none" )
acuPrep: Processing DENSITY_MODEL( "Mat100" )
acuPrep: Processing SPECIFIC_HEAT_MODEL( "none" )
acuPrep: Processing SPECIFIC_HEAT_MODEL( "Mat100" )
acuPrep: Processing VISCOSITY_MODEL( "none" )
acuPrep: Processing VISCOSITY_MODEL( "Mat100" )
acuPrep: Processing VISCOELASTIC_MODEL( "none" )
acuPrep: Processing CONDUCTIVITY_MODEL( "none" )
acuPrep: Processing CONDUCTIVITY_MODEL( "Mat100" )
acuPrep: Processing DIFFUSIVITY_MODEL( "none" )
acuPrep: Processing POROSITY_MODEL( "none" )
acuPrep: Processing MATERIAL_RADIATION_MODEL( "none" )
acuPrep: Processing MATERIAL_MODEL( "none" )
acuPrep: Processing MATERIAL_MODEL( "Mat100" )
acuPrep: Processing SURFACE_TENSION_MODEL( "none" )
acuPrep: Processing CONTACT_ANGLE_MODEL( "none" )
acuPrep: Processing FIELD_INTERACTION_MODEL( "none" )
acuPrep: Processing MULTI_FIELD_MODEL( "none" )
acuPrep: Processing EMISSIVITY_MODEL( "none" )
acuPrep: Processing SOLAR_RADIATION_MODEL( "none" )
acuPrep: Processing COORDINATE
acuPrep: Processing NODAL_INITIAL_CONDITION( "pressure" )
acuPrep: Processing NODAL_OUTPUT
acuPrep: Processing DERIVED_QUANTITY_OUTPUT
acuPrep: Processing RUNNING_AVERAGE_OUTPUT
acuPrep: Processing TIME_AVERAGE_OUTPUT
acuPrep: Processing RESTART_OUTPUT
acuPrep: Processing ERROR_ESTIMATOR_OUTPUT
acuPrep: Processing NODAL_RESIDUAL_OUTPUT
acuPrep: Processing VOLUME_SET( "M100D8v1.SolidBody_1_1.tet4" )
acuPrep: Processing VOLUME_SET( "M100D8v1.SolidBody_1_1.wedge6" )
acuPrep: Processing ELEMENT_SET( "DefaultPart SolidBody_1_1" )
acuPrep: Processing SURFACE_SET( "M100D8v1.SurfaceSet_2838655795.tria3.SolidBody_1_1.tet4" )
acuPrep: Processing SURFACE_SET( "M100D8v1.SurfaceSet_677566176.tria3.SolidBody_1_1.tet4" )
acuPrep: Processing SURFACE_SET( "M100D8v1.SurfaceSet_4252425245.tria3.SolidBody_1_1.wedge6" )
acuPrep: Processing SURFACE_SET( "M100D8v1.SurfaceSet_2114425791.tria3.SolidBody_1_1.wedge6" )
acuPrep: Processing SURFACE_SET( "M100D8v1.SurfaceSet_2838655795.quad4.SolidBody_1_1.wedge6" )
acuPrep: Processing SURFACE_SET( "M100D8v1.SurfaceSet_677566176.quad4.SolidBody_1_1.wedge6" )
acuPrep: Processing FIELD_BOUNDARY_CONDITION( "none" )
acuPrep: Processing SIMPLE_BOUNDARY_CONDITION( "Default Wall" )
acuPrep: Processing SIMPLE_BOUNDARY_CONDITION( "Outlet" )
acuPrep: Processing SIMPLE_BOUNDARY_CONDITION( "Inlet" )
acuPrep: Processing SURFACE_OUTPUT( "Outlet - Output" )
acuPrep: Processing SURFACE_OUTPUT( "Inlet - Output" )
acuPrep: Processing SURFACE_OUTPUT( "entree" )
acuPrep: Processing SURFACE_OUTPUT( "transition" )
acuPrep: Processing SURFACE_OUTPUT( "sortie" )
acuPrep: Processing FWH_OUTPUT
acuPrep: Processing VAO_OUTPUT
acuPrep: Processing AUTO_WALL
acuPrep: ------------------------------------------------------------------
acuPrep:          Minimum coordinates = 8.4111e+000 7.8558e+000 2.0298e+001
acuPrep:          Maximum coordinates = 9.4111e+000 8.8558e+000 4.3298e+001
acuPrep:                  Total nodes =      27362
acuPrep:               Total elements =      82274
acuPrep:                Element aggl. =          1
acuPrep:    Total aggl. rad. surfaces =          0
acuPrep:     Total interface surfaces =          0
acuPrep: ------------------------------------------------------------------
acuPrep:                  Output data = Subdomain 0
acuPrep:                  Output data = Subdomain 1
acuPrep:                  Output data = Subdomain 2
acuPrep:                  Output data = Subdomain 3
acuPrep:                  Output data = Domain decomposition
acuPrep:                  Output data = Surface output
acuPrep: ------------------------------------------------------------------
acuPrep:       Input  CPU/Elapse time = 1.250000e-001 2.500000e-002 Sec
acuPrep:       Proc.  CPU/Elapse time = 6.250000e-001 7.600000e-002 Sec
acuPrep:       Solar  CPU/Elapse time = 0.000000e+000 0.000000e+000 Sec
acuPrep:       DDC    CPU/Elapse time = 6.250000e-001 7.400000e-002 Sec
acuPrep:       Output CPU/Elapse time = 7.500000e-001 9.800000e-002 Sec
acuPrep:       Total  CPU/Elapse time = 2.140000e+000 2.840000e-001 Sec
acuPrep:            Total Memory Size = 4.300000e+001 Mbytes
acuRun: -*-*-*-*-*-*-*-*-*-*-*-*-*-*-*-*-*-*-*-*-*-*-*-*-*-*-*-*-*-*-*-*-
acuRun: No enclosure radiation found: Bypassing acuView
acuRun: -*-*-*-*-*-*-*-*-*-*-*-*-*-*-*-*-*-*-*-*-*-*-*-*-*-*-*-*-*-*-*-*-
acuRun: Run acuSolve ...
acuRun: Add C:/Program Files/Altair/2020/hwcfdsolvers/acusolve/../../mpi/win64/mpich/bin to PATH
acuRun: set PATH=C:/Program Files/Altair/2020/hwcfdsolvers/acusolve/../../mpi/win64/mpich/bin;C:/Program Files/Altair/2020/hwcfdsolvers/acusolve/win64/bin;C:\Program Files\Altair\2020\hwcfdsolvers\acusolve\win64\bin;C:\Program Files\Altair\2020\hwcfdsolvers\acusolve\win64\base\bin;C:\Program Files\Altair\2020\hwcfdsolvers\acusolve\win64\base\DLLs;C:\Program Files\Altair\2020\hwcfdsolvers\acusolve\win64\base\lib\site-packages;C:\Program Files\Altair\2020\hwcfdsolvers\acusolve\win64\abaqus-odb\lib;C:\Program Files\Altair\2020\hwcfdsolvers\acusolve\win64\perl\bin;C:\Program Files\Altair\2020\hwdesktop\common\python\python3.5\win64\DLLs;C:\Program Files\Altair\2020\hwdesktop\hwx\bin\win64;C:\Program Files\Altair\2020\hwdesktop\hw\bin\win64;C:\Program Files (x86)\NVIDIA Corporation\PhysX\Common;C:\Program Files (x86)\Common Files\Oracle\Java\javapath;C:\Program Files\Microsoft MPI\Bin\;C:\Windows\system32;C:\Windows;C:\Windows\System32\Wbem;C:\Windows\System32\WindowsPowerShell\v1.0\;C:\Windows\System32\OpenSSH\;C:\Program Files\MATLAB\R2020b\runtime\win64;C:\Program Files\MATLAB\R2020b\bin;C:\Program Files (x86)\Windows Kits\8.1\Windows Performance Toolkit\;C:\Program Files\Microsoft SQL Server\Client SDK\ODBC\110\Tools\Binn\;C:\Program Files (x86)\Microsoft SQL Server\120\Tools\Binn\;C:\Program Files\Microsoft SQL Server\120\Tools\Binn\;C:\Program Files\Microsoft SQL Server\120\DTS\Binn\;C:\Program Files (x86)\Microsoft SQL Server\120\Tools\Binn\ManagementStudio\;C:\Program Files (x86)\Microsoft SQL Server\120\DTS\Binn\;C:\Users\lerquet1u\AppData\Local\Microsoft\WindowsApps;;C:\Program Files\Altair\2020\hwdesktop\common\python\python3.5\win64\lib\site-packages\pywin32_system32;C:/Program Files/Altair/2020/hwdesktop\hm\bin\win64;C:\Program Files\Altair\2020\hwdesktop\hwx\plugins\hwd\profiles\HyperworksCfd\acusolve\bin\win64
acuRun: set KMP_AFFINITY=scatter
acuRun: set MP_SET_NUMTHREADS=4
acuRun: set OMP_NUM_THREADS=4
acuRun: set OMP_DYNAMIC=FALSE
acuRun: set MPC_GANG=OFF
acuRun: "C:/Program Files/Altair/2020/hwcfdsolvers/acusolve/win64/bin/acuSolve".exe -np 1 -nt 4
acuSolve: AcuSolve checked out license from HyperWorks
acuSolve:                       Date = Sun Mar 14 08:21:31 2021
acuSolve:                    Problem = M100D8v1
acuSolve:                        Run = 1
acuSolve:                      Title = M100D8v1
acuSolve:                   Subtitle = 
acuSolve:                  Base unit = unknown
acuSolve:                   Hostname = INSIC-IAO301-07
acuSolve:                   Platform = Windows 8/10 v6.2.9200 x64
acuSolve:                    Machine = win64
acuSolve:                   CPU name = Intel(R) Xeon(R) W-1250P CPU @ 4.10GHz
acuSolve:                  CPU speed = 4100 MHz
acuSolve:                  RAM space = 8102 Mbytes
acuSolve:                 Swap space = 18531 Mbytes
acuSolve:                    Release = 2020.1
acuSolve:               Release date = Aug 21 2020
acuSolve:                  Build Tag = 1030241enyas000_WCL:73428
acuSolve:       Message passing type = OpenMP
acuSolve:       Number of subdomains = 4
acuSolve:       Number of processors = 4
acuSolve:    Ave subdomain non-zeros = 127441
acuSolve:    Max subdomain non-zeros = 128418
acuSolve:    Interface-node fraction = 0.026
acuSolve:          Working directory = ACUSIM.DIR
acuSolve: ---------------------- Input Phase --------------------------
acuSolve: Input CPU/Elapse time      = 1.609000e+000 1.856000e+000 Sec
acuSolve: Input Memory Usage         = 1.100000e+002 Mbytes
acuSolve: Initializing based on Stokes:
acuSolve:     CGP      No iterations =        164
acuSolve:     CGP        0/1/n norms = 5.980628e-005 8.072220e-005 5.728012e-007
acuSolve:     CGP   Iter. CPU/Elapse = 8.750000e-001 2.190000e-001 
acuSolve:     GMRES    No iterations =        455 (45.50)
acuSolve:     GMRES      0/1/n norms = 7.551636e-005 3.807728e-003 7.541746e-006
acuSolve:     GMRES Iter. CPU/Elapse = 5.188000e+000 1.298000e+000 
acuSolve: Initializing turbulence field variables
acuSolve:   Eddy visc.   min/ave/max = 1.110819e-003 8.619436e-003 1.000000e-002
acuSolve: Init. CPU/Elapse time      = 6.750000e+000 1.695000e+000 Sec
acuSolve: ---------------------- Begin Time Step ----------------------
acuSolve: Time-Step=    1 ; timeInc= 1.000000e+010 ; time= 0.000000e+000
acuSolve:   Flow stagger "flow": FORM-LHS
acuSolve:     pressure     res ratio = 6.702762e-003
acuSolve:     velocity     res ratio = 8.960429e-002
acuSolve:     CGP      No iterations =        395
acuSolve:     CGP        0/1/n norms = 4.031656e-004 5.515883e-004 3.727175e-006
acuSolve:     CGP   Iter. CPU/Elapse = 2.188000e+000 5.520000e-001 
acuSolve:     GMRES    No iterations =        228 (22.80)
acuSolve:     GMRES      0/1/n norms = 8.792819e-004 2.710437e-003 5.851929e-006
acuSolve:     GMRES Iter. CPU/Elapse = 2.750000e+000 6.820000e-001 
acuSolve:     pressure     sol ratio = 5.169691e+001
acuSolve:     velocity     sol ratio = 1.392552e+000
acuSolve:   Turbulence stagger "turbulence": FORM-LHS
acuSolve:     eddy-visc.   res ratio = 8.734164e-001
acuSolve:     GMRES    No iterations =         10 (0.25)
acuSolve:     GMRES      0/1/n norms = 2.206960e-005 2.206960e-005 1.236804e-008
acuSolve:     GMRES Iter. CPU/Elapse = 0.000000e+000 4.000000e-003 
acuSolve:     eddy-visc.   sol ratio = 6.903264e-001
acuSolve:   CFL timeInc              = 3.652928e-003
acuSolve:   Step CPU/Elapse time     = 6.546000e+000 1.641000e+000 Sec
acuSolve: Time-Step=    2 ; timeInc= 1.000000e+010 ; time= 1.000000e+010
acuSolve:   Flow stagger "flow": FORM-LHS
acuSolve:     pressure     res ratio = 2.249441e-003
acuSolve:     velocity     res ratio = 1.290534e-003
acuSolve:     CGP      No iterations =        198
acuSolve:     CGP        0/1/n norms = 1.369425e-004 4.181127e-004 2.950152e-009
acuSolve:     CGP   Iter. CPU/Elapse = 1.001000e+000 2.610000e-001 
acuSolve:     GMRES    No iterations =        114 (11.40)
acuSolve:     GMRES      0/1/n norms = 4.305886e-004 1.064237e-003 1.334873e-005
acuSolve:     GMRES Iter. CPU/Elapse = 1.437000e+000 3.510000e-001 
acuSolve:     pressure     sol ratio = 9.831127e-001
acuSolve:     velocity     sol ratio = 6.578011e-001
acuSolve:   Turbulence stagger "turbulence": FORM-LHS
acuSolve:     eddy-visc.   res ratio = 9.192299e-001
acuSolve:     GMRES    No iterations =         10 (0.25)
acuSolve:     GMRES      0/1/n norms = 1.118306e-005 1.118306e-005 6.384893e-009
acuSolve:     GMRES Iter. CPU/Elapse = 6.300000e-002 6.000000e-003 
acuSolve:     eddy-visc.   sol ratio = 6.558243e-001
acuSolve:   CFL timeInc              = 3.565461e-003
acuSolve:   Step CPU/Elapse time     = 4.000000e+000 9.950000e-001 Sec
acuSolve: Time-Step=    3 ; timeInc= 1.000000e+010 ; time= 2.000000e+010
acuSolve:   Flow stagger "flow": FORM-LHS
acuSolve:     pressure     res ratio = 1.303507e-003
acuSolve:     velocity     res ratio = 1.187572e-003
acuSolve:     CGP      No iterations =         99
acuSolve:     CGP        0/1/n norms = 5.587462e-005 1.560576e-004 1.976557e-007
acuSolve:     CGP   Iter. CPU/Elapse = 7.500000e-001 1.760000e-001 
acuSolve:     GMRES    No iterations =         57 (5.70)
acuSolve:     GMRES      0/1/n norms = 1.787062e-004 4.125316e-004 1.501824e-005
acuSolve:     GMRES Iter. CPU/Elapse = 6.250000e-001 1.630000e-001 
acuSolve:     pressure     sol ratio = 7.304016e-001
acuSolve:     velocity     sol ratio = 2.751260e-001
acuSolve:   Turbulence stagger "turbulence": FORM-LHS
acuSolve:     eddy-visc.   res ratio = 9.237643e-001
acuSolve:     GMRES    No iterations =         10 (0.25)
acuSolve:     GMRES      0/1/n norms = 6.170967e-006 6.170967e-006 1.842537e-009
acuSolve:     GMRES Iter. CPU/Elapse = 0.000000e+000 5.000000e-003 
acuSolve:     eddy-visc.   sol ratio = 6.025332e-001
acuSolve:   CFL timeInc              = 3.553627e-003
acuSolve:   Step CPU/Elapse time     = 2.875000e+000 7.100000e-001 Sec
acuSolve: Time-Step=    4 ; timeInc= 1.000000e+010 ; time= 3.000000e+010
acuSolve:   Flow stagger "flow": FORM-LHS
acuSolve:     pressure     res ratio = 8.501144e-004
acuSolve:     velocity     res ratio = 9.598773e-004
acuSolve:     CGP      No iterations =         80
acuSolve:     CGP        0/1/n norms = 3.565508e-005 6.549414e-005 3.560670e-007
acuSolve:     CGP   Iter. CPU/Elapse = 5.000000e-001 1.180000e-001 
acuSolve:     GMRES    No iterations =         43 (4.30)
acuSolve:     GMRES      0/1/n norms = 9.076839e-005 1.599623e-004 8.903525e-006
acuSolve:     GMRES Iter. CPU/Elapse = 5.940000e-001 1.580000e-001 
acuSolve:     pressure     sol ratio = 4.488476e-001
acuSolve:     velocity     sol ratio = 1.080108e-001
acuSolve:   Turbulence stagger "turbulence": FORM-LHS
acuSolve:     eddy-visc.   res ratio = 9.340460e-001
acuSolve:     GMRES    No iterations =         10 (0.25)
acuSolve:     GMRES      0/1/n norms = 3.441782e-006 3.441782e-006 1.593447e-009
acuSolve:     GMRES Iter. CPU/Elapse = 6.300000e-002 5.000000e-003 
acuSolve:     eddy-visc.   sol ratio = 5.435708e-001
acuSolve:   CFL timeInc              = 3.535498e-003
acuSolve:   Step CPU/Elapse time     = 2.500000e+000 6.510000e-001 Sec
acuSolve: Time-Step=    5 ; timeInc= 1.000000e+010 ; time= 4.000000e+010
acuSolve:   Flow stagger "flow": FORM-LHS
acuSolve:     pressure     res ratio = 5.356285e-004
acuSolve:     velocity     res ratio = 1.078512e-003
acuSolve:     CGP      No iterations =         76
acuSolve:     CGP        0/1/n norms = 2.340941e-005 3.228584e-005 2.231824e-007
acuSolve:     CGP   Iter. CPU/Elapse = 5.630000e-001 1.400000e-001 
acuSolve:     GMRES    No iterations =         32 (3.20)
acuSolve:     GMRES      0/1/n norms = 6.645100e-005 7.900149e-005 6.577802e-006
acuSolve:     GMRES Iter. CPU/Elapse = 3.750000e-001 9.400000e-002 
acuSolve:     pressure     sol ratio = 3.198124e-001
acuSolve:     velocity     sol ratio = 5.170324e-002
acuSolve:   Turbulence stagger "turbulence": FORM-LHS
acuSolve:     eddy-visc.   res ratio = 9.278078e-001
acuSolve:     GMRES    No iterations =         10 (0.25)
acuSolve:     GMRES      0/1/n norms = 1.940974e-006 1.940974e-006 2.239675e-009
acuSolve:     GMRES Iter. CPU/Elapse = 0.000000e+000 5.000000e-003 
acuSolve:     eddy-visc.   sol ratio = 4.932035e-001
acuSolve:   CFL timeInc              = 3.534670e-003
acuSolve:   Step CPU/Elapse time     = 2.501000e+000 6.190000e-001 Sec
acuSolve: Time-Step=    6 ; timeInc= 1.000000e+010 ; time= 5.000000e+010
acuSolve:   Flow stagger "flow": FORM-LHS
acuSolve:     pressure     res ratio = 4.056359e-004
acuSolve:     velocity     res ratio = 1.207050e-003
acuSolve:     CGP      No iterations =         83
acuSolve:     CGP        0/1/n norms = 1.743337e-005 1.818715e-005 1.602028e-007
acuSolve:     CGP   Iter. CPU/Elapse = 5.000000e-001 1.210000e-001 
acuSolve:     GMRES    No iterations =         23 (2.30)
acuSolve:     GMRES      0/1/n norms = 7.374265e-005 7.773465e-005 7.337420e-006
acuSolve:     GMRES Iter. CPU/Elapse = 2.500000e-001 6.900000e-002 
acuSolve:     pressure     sol ratio = 3.637225e-001
acuSolve:     velocity     sol ratio = 5.988460e-002
acuSolve:   Turbulence stagger "turbulence": FORM-LHS
acuSolve:     eddy-visc.   res ratio = 8.177636e-001
acuSolve:     GMRES    No iterations =         10 (0.25)
acuSolve:     GMRES      0/1/n norms = 9.256175e-007 9.256175e-007 3.179773e-009
acuSolve:     GMRES Iter. CPU/Elapse = 6.300000e-002 5.000000e-003 
acuSolve:     eddy-visc.   sol ratio = 4.267163e-001
acuSolve:   CFL timeInc              = 3.527015e-003
acuSolve:   Step CPU/Elapse time     = 2.421000e+000 6.050000e-001 Sec
acuSolve: Time-Step=    7 ; timeInc= 1.000000e+010 ; time= 6.000000e+010
acuSolve:   Flow stagger "flow": FORM-LHS
acuSolve:     pressure     res ratio = 3.963939e-004
acuSolve:     velocity     res ratio = 1.406241e-003
acuSolve:     CGP      No iterations =         82
acuSolve:     CGP        0/1/n norms = 1.390370e-005 1.441636e-005 1.352613e-007
acuSolve:     CGP   Iter. CPU/Elapse = 5.000000e-001 1.210000e-001 
acuSolve:     GMRES    No iterations =         19 (1.90)
acuSolve:     GMRES      0/1/n norms = 9.058588e-005 8.984452e-005 8.987746e-006
acuSolve:     GMRES Iter. CPU/Elapse = 1.880000e-001 5.500000e-002 
acuSolve:     pressure     sol ratio = 1.657608e-001
acuSolve:     velocity     sol ratio = 8.078894e-002
acuSolve:   Turbulence stagger "turbulence": FORM-LHS
acuSolve:     eddy-visc.   res ratio = 6.612168e-001
acuSolve:     GMRES    No iterations =         10 (0.25)
acuSolve:     GMRES      0/1/n norms = 4.509981e-007 4.509981e-007 3.960408e-009
acuSolve:     GMRES Iter. CPU/Elapse = 0.000000e+000 6.000000e-003 
acuSolve:     eddy-visc.   sol ratio = 3.339095e-001
acuSolve:   CFL timeInc              = 3.508454e-003
acuSolve:   Step CPU/Elapse time     = 2.188000e+000 5.480000e-001 Sec
acuSolve: Time-Step=    8 ; timeInc= 1.000000e+010 ; time= 7.000000e+010
acuSolve:   Flow stagger "flow": FORM-LHS
acuSolve:     pressure     res ratio = 4.162533e-004
acuSolve:     velocity     res ratio = 1.466749e-003
acuSolve:     CGP      No iterations =        104
acuSolve:     CGP        0/1/n norms = 1.241722e-005 1.120958e-005 1.224728e-007
acuSolve:     CGP   Iter. CPU/Elapse = 6.250000e-001 1.500000e-001 
acuSolve:     GMRES    No iterations =         12 (1.20)
acuSolve:     GMRES      0/1/n norms = 1.048143e-004 8.796627e-005 1.019890e-005
acuSolve:     GMRES Iter. CPU/Elapse = 1.250000e-001 3.700000e-002 
acuSolve:     pressure     sol ratio = 3.346878e-001
acuSolve:     velocity     sol ratio = 9.212312e-002
acuSolve:   Turbulence stagger "turbulence": FORM-LHS
acuSolve:     eddy-visc.   res ratio = 5.525296e-001
acuSolve:     GMRES    No iterations =         17 (0.42)
acuSolve:     GMRES      0/1/n norms = 2.594358e-007 2.594358e-007 2.592684e-009
acuSolve:     GMRES Iter. CPU/Elapse = 6.200000e-002 8.000000e-003 
acuSolve:     eddy-visc.   sol ratio = 2.565914e-001
acuSolve:   CFL timeInc              = 3.491995e-003
acuSolve:   Step CPU/Elapse time     = 2.250000e+000 5.720000e-001 Sec
acuSolve: Time-Step=    9 ; timeInc= 1.000000e+010 ; time= 8.000000e+010
acuSolve:   Flow stagger "flow": FORM-LHS
acuSolve:     pressure     res ratio = 3.782689e-004
acuSolve:     velocity     res ratio = 1.713058e-003
acuSolve:     CGP      No iterations =         95
acuSolve:     CGP        0/1/n norms = 1.131383e-005 1.256456e-005 1.122101e-007
acuSolve:     CGP   Iter. CPU/Elapse = 5.000000e-001 1.370000e-001 
acuSolve:     GMRES    No iterations =         10 (1.00)
acuSolve:     GMRES      0/1/n norms = 1.185647e-004 8.204654e-005 1.147667e-005
acuSolve:     GMRES Iter. CPU/Elapse = 1.250000e-001 3.100000e-002 
acuSolve:     pressure     sol ratio = 6.536859e-002
acuSolve:     velocity     sol ratio = 9.436025e-002
acuSolve:   Turbulence stagger "turbulence": FORM-LHS
acuSolve:     eddy-visc.   res ratio = 4.665748e-001
acuSolve:     GMRES    No iterations =         21 (0.53)
acuSolve:     GMRES      0/1/n norms = 1.579432e-007 1.579432e-007 1.534960e-009
acuSolve:     GMRES Iter. CPU/Elapse = 0.000000e+000 9.000000e-003 
acuSolve:     eddy-visc.   sol ratio = 2.027308e-001
acuSolve:   CFL timeInc              = 3.480228e-003
acuSolve:   Step CPU/Elapse time     = 2.187000e+000 5.430000e-001 Sec
acuSolve: Time-Step=   10 ; timeInc= 1.000000e+010 ; time= 9.000000e+010
acuSolve:   Flow stagger "flow": FORM-LHS
acuSolve:     pressure     res ratio = 3.567047e-004
acuSolve:     velocity     res ratio = 1.610731e-003
acuSolve:     CGP      No iterations =        131
acuSolve:     CGP        0/1/n norms = 9.287950e-006 1.063127e-005 9.111688e-008
acuSolve:     CGP   Iter. CPU/Elapse = 7.500000e-001 1.820000e-001 
acuSolve:     GMRES    No iterations =         10 (1.00)
acuSolve:     GMRES      0/1/n norms = 1.105107e-004 6.653880e-005 9.225309e-006
acuSolve:     GMRES Iter. CPU/Elapse = 1.250000e-001 2.900000e-002 
acuSolve:     pressure     sol ratio = 6.980834e-001
acuSolve:     velocity     sol ratio = 9.237743e-002
acuSolve:   Turbulence stagger "turbulence": FORM-LHS
acuSolve:     eddy-visc.   res ratio = 3.776848e-001
acuSolve:     GMRES    No iterations =         22 (0.55)
acuSolve:     GMRES      0/1/n norms = 1.065427e-007 1.065427e-007 1.062533e-009
acuSolve:     GMRES Iter. CPU/Elapse = 6.200000e-002 9.000000e-003 
acuSolve:     eddy-visc.   sol ratio = 1.487291e-001
acuSolve:   CFL timeInc              = 3.474568e-003
acuSolve:   Step CPU/Elapse time     = 2.375000e+000 5.890000e-001 Sec
acuSolve: Time-Step=   11 ; timeInc= 1.000000e+010 ; time= 1.000000e+011
acuSolve:   Flow stagger "flow": FORM-LHS
acuSolve:     pressure     res ratio = 3.350440e-004
acuSolve:     velocity     res ratio = 1.592956e-003
acuSolve:     CGP      No iterations =        106
acuSolve:     CGP        0/1/n norms = 8.185683e-006 8.452273e-006 7.945998e-008
acuSolve:     CGP   Iter. CPU/Elapse = 6.250000e-001 1.500000e-001 
acuSolve:     GMRES    No iterations =         11 (1.10)
acuSolve:     GMRES      0/1/n norms = 8.398145e-005 4.683061e-005 8.271756e-006
acuSolve:     GMRES Iter. CPU/Elapse = 1.250000e-001 3.500000e-002 
acuSolve:     pressure     sol ratio = 2.204702e-001
acuSolve:     velocity     sol ratio = 7.547065e-002
acuSolve:   Turbulence stagger "turbulence": FORM-LHS
acuSolve:     eddy-visc.   res ratio = 2.144027e-001
acuSolve:     GMRES    No iterations =         33 (0.82)
acuSolve:     GMRES      0/1/n norms = 4.832362e-008 4.832362e-008 4.726083e-010
acuSolve:     GMRES Iter. CPU/Elapse = 6.200000e-002 1.600000e-002 
acuSolve:     eddy-visc.   sol ratio = 1.021774e-001
acuSolve:   CFL timeInc              = 3.474831e-003
acuSolve:   Step CPU/Elapse time     = 2.250000e+000 5.700000e-001 Sec
acuSolve: Time-Step=   12 ; timeInc= 1.000000e+010 ; time= 1.100000e+011
acuSolve:   Flow stagger "flow": FORM-LHS
acuSolve:     pressure     res ratio = 3.130342e-004
acuSolve:     velocity     res ratio = 1.296705e-003
acuSolve:     CGP      No iterations =         85
acuSolve:     CGP        0/1/n norms = 7.141065e-006 7.511536e-006 6.941296e-008
acuSolve:     CGP   Iter. CPU/Elapse = 5.000000e-001 1.240000e-001 
acuSolve:     GMRES    No iterations =         20 (2.00)
acuSolve:     GMRES      0/1/n norms = 6.004566e-005 3.367750e-005 5.962926e-006
acuSolve:     GMRES Iter. CPU/Elapse = 1.880000e-001 5.800000e-002 
acuSolve:     pressure     sol ratio = 1.723909e-001
acuSolve:     velocity     sol ratio = 6.167919e-002
acuSolve:   Turbulence stagger "turbulence": FORM-LHS
acuSolve:     eddy-visc.   res ratio = 2.124674e-001
acuSolve:     GMRES    No iterations =         23 (0.57)
acuSolve:     GMRES      0/1/n norms = 4.586526e-008 4.586526e-008 4.384763e-010
acuSolve:     GMRES Iter. CPU/Elapse = 6.200000e-002 1.100000e-002 
acuSolve:     eddy-visc.   sol ratio = 7.215520e-002
acuSolve:   CFL timeInc              = 3.471926e-003
acuSolve:   Step CPU/Elapse time     = 2.250000e+000 5.620000e-001 Sec
acuSolve: Time-Step=   13 ; timeInc= 1.000000e+010 ; time= 1.200000e+011
acuSolve:   Flow stagger "flow": FORM-LHS
acuSolve:     pressure     res ratio = 3.053049e-004
acuSolve:     velocity     res ratio = 1.067267e-003
acuSolve:     CGP      No iterations =         69
acuSolve:     CGP        0/1/n norms = 5.990729e-006 6.272492e-006 5.771943e-008
acuSolve:     CGP   Iter. CPU/Elapse = 3.750000e-001 1.060000e-001 
acuSolve:     GMRES    No iterations =         28 (2.80)
acuSolve:     GMRES      0/1/n norms = 4.538127e-005 2.574260e-005 4.502628e-006
acuSolve:     GMRES Iter. CPU/Elapse = 4.370000e-001 1.030000e-001 
acuSolve:     pressure     sol ratio = 1.052184e-001
acuSolve:     velocity     sol ratio = 5.153307e-002
acuSolve:   Turbulence stagger "turbulence": FORM-LHS
acuSolve:     eddy-visc.   res ratio = 1.427625e-001
acuSolve:     GMRES    No iterations =         25 (0.63)
acuSolve:     GMRES      0/1/n norms = 3.368668e-008 3.368668e-008 3.234493e-010
acuSolve:     GMRES Iter. CPU/Elapse = 6.300000e-002 1.300000e-002 
acuSolve:     eddy-visc.   sol ratio = 4.981180e-002
acuSolve:   CFL timeInc              = 3.469992e-003
acuSolve:   Step CPU/Elapse time     = 2.438000e+000 6.030000e-001 Sec
acuSolve: Time-Step=   14 ; timeInc= 1.000000e+010 ; time= 1.300000e+011
acuSolve:   Flow stagger "flow": FORM-LHS
acuSolve:     pressure     res ratio = 2.655305e-004
acuSolve:     velocity     res ratio = 9.145379e-004
acuSolve:     CGP      No iterations =         83
acuSolve:     CGP        0/1/n norms = 4.912332e-006 4.909472e-006 4.813139e-008
acuSolve:     CGP   Iter. CPU/Elapse = 5.630000e-001 1.430000e-001 
acuSolve:     GMRES    No iterations =         37 (3.70)
acuSolve:     GMRES      0/1/n norms = 3.503922e-005 2.009822e-005 3.457389e-006
acuSolve:     GMRES Iter. CPU/Elapse = 4.370000e-001 1.210000e-001 
acuSolve:     pressure     sol ratio = 1.152782e-001
acuSolve:     velocity     sol ratio = 4.083294e-002
acuSolve:   Turbulence stagger "turbulence": FORM-LHS
acuSolve:     eddy-visc.   res ratio = 9.155743e-002
acuSolve:     GMRES    No iterations =         28 (0.70)
acuSolve:     GMRES      0/1/n norms = 2.979256e-008 2.979256e-008 2.855909e-010
acuSolve:     GMRES Iter. CPU/Elapse = 6.300000e-002 1.300000e-002 
acuSolve:     eddy-visc.   sol ratio = 3.728348e-002
acuSolve:   CFL timeInc              = 3.457548e-003
acuSolve:   Step CPU/Elapse time     = 2.625000e+000 6.570000e-001 Sec
acuSolve: Time-Step=   15 ; timeInc= 1.000000e+010 ; time= 1.400000e+011
acuSolve:   Flow stagger "flow": FORM-LHS
acuSolve:     pressure     res ratio = 2.223944e-004
acuSolve:     velocity     res ratio = 7.807219e-004
acuSolve:     CGP      No iterations =        101
acuSolve:     CGP        0/1/n norms = 4.363436e-006 4.033896e-006 4.334919e-008
acuSolve:     CGP   Iter. CPU/Elapse = 6.240000e-001 1.450000e-001 
acuSolve:     GMRES    No iterations =         39 (3.90)
acuSolve:     GMRES      0/1/n norms = 2.746443e-005 1.708032e-005 2.732612e-006
acuSolve:     GMRES Iter. CPU/Elapse = 4.380000e-001 1.120000e-001 
acuSolve:     pressure     sol ratio = 3.871706e-002
acuSolve:     velocity     sol ratio = 3.090929e-002
acuSolve:   Turbulence stagger "turbulence": FORM-LHS
acuSolve:     eddy-visc.   res ratio = 5.283390e-002
acuSolve:     GMRES    No iterations =         27 (0.68)
acuSolve:     GMRES      0/1/n norms = 2.358881e-008 2.358881e-008 2.228147e-010
acuSolve:     GMRES Iter. CPU/Elapse = 6.300000e-002 1.300000e-002 
acuSolve:     eddy-visc.   sol ratio = 3.228486e-002
acuSolve:   CFL timeInc              = 3.443983e-003
acuSolve:   Step CPU/Elapse time     = 2.562000e+000 6.390000e-001 Sec
acuSolve: Time-Step=   16 ; timeInc= 1.000000e+010 ; time= 1.500000e+011
acuSolve:   Flow stagger "flow": FORM-LHS
acuSolve:     pressure     res ratio = 1.943504e-004
acuSolve:     velocity     res ratio = 5.990009e-004
acuSolve:     CGP      No iterations =         80
acuSolve:     CGP        0/1/n norms = 3.683547e-006 3.796945e-006 3.388174e-008
acuSolve:     CGP   Iter. CPU/Elapse = 5.000000e-001 1.190000e-001 
acuSolve:     GMRES    No iterations =         48 (4.80)
acuSolve:     GMRES      0/1/n norms = 2.055223e-005 1.404237e-005 2.035328e-006
acuSolve:     GMRES Iter. CPU/Elapse = 5.000000e-001 1.360000e-001 
acuSolve:     pressure     sol ratio = 8.188891e-002
acuSolve:     velocity     sol ratio = 2.376279e-002
acuSolve:   Turbulence stagger "turbulence": FORM-LHS
acuSolve:     eddy-visc.   res ratio = 4.511917e-002
acuSolve:     GMRES    No iterations =         28 (0.70)
acuSolve:     GMRES      0/1/n norms = 2.418109e-008 2.418109e-008 2.262279e-010
acuSolve:     GMRES Iter. CPU/Elapse = 6.200000e-002 1.800000e-002 
acuSolve:     eddy-visc.   sol ratio = 2.913474e-002
acuSolve:   CFL timeInc              = 3.428598e-003
acuSolve:   Step CPU/Elapse time     = 2.562000e+000 6.420000e-001 Sec
acuSolve: Time-Step=   17 ; timeInc= 1.000000e+010 ; time= 1.600000e+011
acuSolve:   Flow stagger "flow": FORM-LHS
acuSolve:     pressure     res ratio = 1.659392e-004
acuSolve:     velocity     res ratio = 4.745325e-004
acuSolve:     CGP      No iterations =         90
acuSolve:     CGP        0/1/n norms = 3.138605e-006 2.933350e-006 3.029544e-008
acuSolve:     CGP   Iter. CPU/Elapse = 5.630000e-001 1.320000e-001 
acuSolve:     GMRES    No iterations =         58 (5.80)
acuSolve:     GMRES      0/1/n norms = 1.536066e-005 1.085151e-005 1.531519e-006
acuSolve:     GMRES Iter. CPU/Elapse = 6.250000e-001 1.670000e-001 
acuSolve:     pressure     sol ratio = 7.249171e-002
acuSolve:     velocity     sol ratio = 1.823472e-002
acuSolve:   Turbulence stagger "turbulence": FORM-LHS
acuSolve:     eddy-visc.   res ratio = 3.268075e-002
acuSolve:     GMRES    No iterations =         29 (0.72)
acuSolve:     GMRES      0/1/n norms = 2.164166e-008 2.164166e-008 2.110960e-010
acuSolve:     GMRES Iter. CPU/Elapse = 6.200000e-002 1.300000e-002 
acuSolve:     eddy-visc.   sol ratio = 2.848282e-002
acuSolve:   CFL timeInc              = 3.419653e-003
acuSolve:   Step CPU/Elapse time     = 2.688000e+000 6.800000e-001 Sec
acuSolve: Time-Step=   18 ; timeInc= 1.000000e+010 ; time= 1.700000e+011
acuSolve:   Flow stagger "flow": FORM-LHS
acuSolve:     pressure     res ratio = 1.165935e-004
acuSolve:     velocity     res ratio = 4.087854e-004
acuSolve:     CGP      No iterations =         78
acuSolve:     CGP        0/1/n norms = 2.470018e-006 2.106650e-006 2.298719e-008
acuSolve:     CGP   Iter. CPU/Elapse = 4.380000e-001 1.160000e-001 
acuSolve:     GMRES    No iterations =         69 (6.90)
acuSolve:     GMRES      0/1/n norms = 1.142331e-005 8.111396e-006 1.132092e-006
acuSolve:     GMRES Iter. CPU/Elapse = 8.120000e-001 1.960000e-001 
acuSolve:     pressure     sol ratio = 2.189255e-002
acuSolve:     velocity     sol ratio = 1.272792e-002
acuSolve:   Turbulence stagger "turbulence": FORM-LHS
acuSolve:     eddy-visc.   res ratio = 2.710983e-002
acuSolve:     GMRES    No iterations =         24 (0.60)
acuSolve:     GMRES      0/1/n norms = 2.255286e-008 2.255286e-008 2.111181e-010
acuSolve:     GMRES Iter. CPU/Elapse = 6.200000e-002 1.100000e-002 
acuSolve:     eddy-visc.   sol ratio = 2.776327e-002
acuSolve:   CFL timeInc              = 3.412534e-003
acuSolve:   Step CPU/Elapse time     = 2.812000e+000 6.930000e-001 Sec
acuSolve: Time-Step=   19 ; timeInc= 1.000000e+010 ; time= 1.800000e+011
acuSolve:   Flow stagger "flow": FORM-LHS
acuSolve:     pressure     res ratio = 8.619269e-005
acuSolve:     velocity     res ratio = 3.078228e-004
acuSolve:     CGP      No iterations =         69
acuSolve:     CGP        0/1/n norms = 1.883053e-006 1.649463e-006 1.837787e-008
acuSolve:     CGP   Iter. CPU/Elapse = 4.380000e-001 1.050000e-001 
acuSolve:     GMRES    No iterations =         58 (5.80)
acuSolve:     GMRES      0/1/n norms = 8.352905e-006 5.774136e-006 8.279911e-007
acuSolve:     GMRES Iter. CPU/Elapse = 6.250000e-001 1.670000e-001 
acuSolve:     pressure     sol ratio = 1.583464e-002
acuSolve:     velocity     sol ratio = 8.805823e-003
acuSolve:   Turbulence stagger "turbulence": FORM-LHS
acuSolve:     eddy-visc.   res ratio = 2.216793e-002
acuSolve:     GMRES    No iterations =         22 (0.55)
acuSolve:     GMRES      0/1/n norms = 2.169470e-008 2.169470e-008 2.072140e-010
acuSolve:     GMRES Iter. CPU/Elapse = 6.200000e-002 1.000000e-002 
acuSolve:     eddy-visc.   sol ratio = 2.574341e-002
acuSolve:   CFL timeInc              = 3.411463e-003
acuSolve:   Step CPU/Elapse time     = 2.563000e+000 6.490000e-001 Sec
acuSolve: Time-Step=   20 ; timeInc= 1.000000e+010 ; time= 1.900000e+011
acuSolve:   Flow stagger "flow": FORM-LHS
acuSolve:     pressure     res ratio = 6.789159e-005
acuSolve:     velocity     res ratio = 2.256852e-004
acuSolve:     CGP      No iterations =         65
acuSolve:     CGP        0/1/n norms = 1.541227e-006 1.251866e-006 1.523256e-008
acuSolve:     CGP   Iter. CPU/Elapse = 3.750000e-001 1.000000e-001 
acuSolve:     GMRES    No iterations =         93 (9.30)
acuSolve:     GMRES      0/1/n norms = 6.127446e-006 4.600900e-006 6.114460e-007
acuSolve:     GMRES Iter. CPU/Elapse = 1.063000e+000 2.670000e-001 
acuSolve:     pressure     sol ratio = 1.505971e-002
acuSolve:     velocity     sol ratio = 7.248241e-003
acuSolve:   Turbulence stagger "turbulence": FORM-LHS
acuSolve:     eddy-visc.   res ratio = 1.795479e-002
acuSolve:     GMRES    No iterations =         15 (0.38)
acuSolve:     GMRES      0/1/n norms = 2.176484e-008 2.176484e-008 2.040871e-010
acuSolve:     GMRES Iter. CPU/Elapse = 0.000000e+000 8.000000e-003 
acuSolve:     eddy-visc.   sol ratio = 2.456838e-002
acuSolve:   CFL timeInc              = 3.406928e-003
acuSolve:   Step CPU/Elapse time     = 3.000000e+000 7.430000e-001 Sec
acuSolve: Time-Step=   21 ; timeInc= 1.000000e+010 ; time= 2.000000e+011
acuSolve:   Flow stagger "flow": FORM-LHS
acuSolve:     pressure     res ratio = 4.536145e-005
acuSolve:     velocity     res ratio = 1.567154e-004
acuSolve:     CGP      No iterations =         67
acuSolve:     CGP        0/1/n norms = 1.131079e-006 1.025555e-006 1.126708e-008
acuSolve:     CGP   Iter. CPU/Elapse = 4.370000e-001 1.020000e-001 
acuSolve:     GMRES    No iterations =         47 (4.70)
acuSolve:     GMRES      0/1/n norms = 4.542647e-006 3.064443e-006 4.092236e-007
acuSolve:     GMRES Iter. CPU/Elapse = 5.000000e-001 1.350000e-001 
acuSolve:     pressure     sol ratio = 6.100702e-003
acuSolve:     velocity     sol ratio = 4.582819e-003
acuSolve:   Turbulence stagger "turbulence": FORM-LHS
acuSolve:     eddy-visc.   res ratio = 1.438940e-002
acuSolve:     GMRES    No iterations =         13 (0.33)
acuSolve:     GMRES      0/1/n norms = 2.165342e-008 2.165342e-008 2.143247e-010
acuSolve:     GMRES Iter. CPU/Elapse = 0.000000e+000 6.000000e-003 
acuSolve:     eddy-visc.   sol ratio = 2.391032e-002
acuSolve:   CFL timeInc              = 3.405754e-003
acuSolve:   Step CPU/Elapse time     = 2.437000e+000 6.130000e-001 Sec
acuSolve: Time-Step=   22 ; timeInc= 1.000000e+010 ; time= 2.100000e+011
acuSolve:   Flow stagger "flow": FORM-LHS
acuSolve:     pressure     res ratio = 2.962562e-005
acuSolve:     velocity     res ratio = 1.108772e-004
acuSolve:     CGP      No iterations =         60
acuSolve:     CGP        0/1/n norms = 9.260827e-007 7.792340e-007 8.345755e-009
acuSolve:     CGP   Iter. CPU/Elapse = 4.380000e-001 9.500000e-002 
acuSolve:     GMRES    No iterations =         41 (4.10)
acuSolve:     GMRES      0/1/n norms = 3.609980e-006 2.503159e-006 3.582232e-007
acuSolve:     GMRES Iter. CPU/Elapse = 4.370000e-001 1.180000e-001 
acuSolve:     pressure     sol ratio = 5.967566e-003
acuSolve:     velocity     sol ratio = 3.491279e-003
acuSolve:   Turbulence stagger "turbulence": FORM-LHS
acuSolve:     eddy-visc.   res ratio = 1.213050e-002
acuSolve:     GMRES    No iterations =         11 (0.28)
acuSolve:     GMRES      0/1/n norms = 2.136616e-008 2.136616e-008 2.134333e-010
acuSolve:     GMRES Iter. CPU/Elapse = 0.000000e+000 6.000000e-003 
acuSolve:     eddy-visc.   sol ratio = 2.350479e-002
acuSolve:   CFL timeInc              = 3.403960e-003
acuSolve:   Step CPU/Elapse time     = 2.376000e+000 5.880000e-001 Sec
acuSolve: Time-Step=   23 ; timeInc= 1.000000e+010 ; time= 2.200000e+011
acuSolve:   Flow stagger "flow": FORM-LHS
acuSolve:     pressure     res ratio = 2.946035e-005
acuSolve:     velocity     res ratio = 8.358717e-005
acuSolve:     CGP      No iterations =         64
acuSolve:     CGP        0/1/n norms = 7.786858e-007 7.586163e-007 7.604817e-009
acuSolve:     CGP   Iter. CPU/Elapse = 3.750000e-001 9.900000e-002 
acuSolve:     GMRES    No iterations =         65 (6.50)
acuSolve:     GMRES      0/1/n norms = 3.000126e-006 2.179731e-006 2.991072e-007
acuSolve:     GMRES Iter. CPU/Elapse = 7.500000e-001 1.880000e-001 
acuSolve:     pressure     sol ratio = 7.213762e-003
acuSolve:     velocity     sol ratio = 3.634565e-003
acuSolve:   Turbulence stagger "turbulence": FORM-LHS
acuSolve:     eddy-visc.   res ratio = 1.040789e-002
acuSolve:     GMRES    No iterations =         10 (0.25)
acuSolve:     GMRES      0/1/n norms = 2.187816e-008 2.187816e-008 2.167664e-010
acuSolve:     GMRES Iter. CPU/Elapse = 0.000000e+000 5.000000e-003 
acuSolve:     eddy-visc.   sol ratio = 2.300085e-002
acuSolve:   CFL timeInc              = 3.403684e-003
acuSolve:   Step CPU/Elapse time     = 2.625000e+000 6.590000e-001 Sec
acuSolve: Time-Step=   24 ; timeInc= 1.000000e+010 ; time= 2.300000e+011
acuSolve:   Flow stagger "flow": FORM-LHS
acuSolve:     pressure     res ratio = 2.295088e-005
acuSolve:     velocity     res ratio = 7.197631e-005
acuSolve:     CGP      No iterations =         53
acuSolve:     CGP        0/1/n norms = 6.110436e-007 6.640417e-007 5.744237e-009
acuSolve:     CGP   Iter. CPU/Elapse = 3.750000e-001 8.600000e-002 
acuSolve:     GMRES    No iterations =         50 (5.00)
acuSolve:     GMRES      0/1/n norms = 2.616201e-006 1.903035e-006 2.607202e-007
acuSolve:     GMRES Iter. CPU/Elapse = 5.620000e-001 1.420000e-001 
acuSolve:     pressure     sol ratio = 2.931019e-003
acuSolve:     velocity     sol ratio = 2.549985e-003
acuSolve:   Turbulence stagger "turbulence": FORM-LHS
acuSolve:     eddy-visc.   res ratio = 9.168986e-003
acuSolve:     GMRES    No iterations =         10 (0.25)
acuSolve:     GMRES      0/1/n norms = 2.044687e-008 2.044687e-008 1.860264e-010
acuSolve:     GMRES Iter. CPU/Elapse = 6.200000e-002 5.000000e-003 
acuSolve:     eddy-visc.   sol ratio = 2.266634e-002
acuSolve:   CFL timeInc              = 3.404138e-003
acuSolve:   Step CPU/Elapse time     = 2.687000e+000 6.780000e-001 Sec
acuSolve: ----------------------- End Time Step -----------------------
acuSolve: ----------------------- Offset Values -----------------------
acuSolve:            Pressure Offset = 0.000000e+000 
acuSolve:         Temperature Offset = 0.000000e+000 
acuSolve: -------------------------------------------------------------
acuSolve: Input       CPU/Elapse time= 8.359000e+000 3.551000e+000 Sec
acuSolve: Output      CPU/Elapse time= 4.736000e+000 1.165000e+000 Sec
acuSolve: Exchange    CPU/Elapse time= 4.070000e-001 7.200000e-002 Sec
acuSolve: Intf.search CPU/Elapse time= 0.000000e+000 0.000000e+000 Sec
acuSolve: Flow stagger "flow":
acuSolve:   No of res/lhs formations =           24           24
acuSolve:   Elem.Form CPU/Elapse time= 1.425100e+001 3.602000e+000 Sec
acuSolve:   Solution  CPU/Elapse time= 3.000100e+001 7.503000e+000 Sec
acuSolve: Turbulence stagger "turbulence":
acuSolve:   No of res/lhs formations =           24           24
acuSolve:   Elem.Form CPU/Elapse time= 9.048000e+000 2.256000e+000 Sec
acuSolve:   Solution  CPU/Elapse time= 1.997000e+000 5.140000e-001 Sec
acuSolve: LnSlv. (host)   Elapse time= 7.404000e+000 Sec
acuSolve: Total CPU/Elapse time      = 7.407700e+001 2.000200e+001 Sec
acuSolve: Total Memory Usage         = 1.120000e+002 Mbytes
acuRun: -*-*-*-*-*-*-*-*-*-*-*-*-*-*-*-*-*-*-*-*-*-*-*-*-*-*-*-*-*-*-*-*-
acuTrans:  Variable                         Min           Max           Ave
acuTrans: x_coordinates                  8.411060e+000 9.411057e+000 8.911025e+000
acuTrans: y_coordinates                  7.855769e+000 8.855769e+000 8.352287e+000
acuTrans: z_coordinates                  2.029768e+001 4.329768e+001 3.209672e+001
acuTrans: x_velocity                     -8.509541e-002 9.580714e-002 2.206800e-005
acuTrans: y_velocity                     -8.918942e-002 1.016366e-001 2.878122e-005
acuTrans: z_velocity                     -3.134794e-001 1.116330e+000 4.721483e-001
acuTrans: pressure                       -1.537120e+001 1.108921e+001 5.321584e+000
acuTrans: eddy_viscosity                 -1.399858e-003 4.000000e-003 8.065854e-004
acuTrans: surface_y_plus                 0.000000e+000 9.905126e+000 5.864767e-001
acuTrans: surface_film_coefficient       0.000000e+000 6.181091e-001 3.575312e-002
acuTrans: x_wall_shear_stress            -5.379435e-002 4.258379e-002 5.052227e-006
acuTrans: y_wall_shear_stress            -4.592216e-002 3.253792e-002 5.263394e-006
acuTrans: z_wall_shear_stress            -2.632924e-001 1.008164e+000 2.661479e-002
acuRun: -*-*-*-*-*-*-*-*-*-*-*-*-*-*-*-*-*-*-*-*-*-*-*-*-*-*-*-*-*-*-*-*-
acuRun: Sun Mar 14 08:21:50 2021
