acuRun: Sun Mar 14 08:24:50 2021
acuRun: acuRun 
acuRun: Processing run 1 ...
acuRun: Hostname = INSIC-IAO301-07
acuRun: Release  = 2020.1
acuRun: Core auto detection found 12 cores
acuRun: num_threads is reduced from (12) to (4)
acuRun: Resetting num_subdomains to 4
acuRun: num_processors (4) equal to num_threads (4)
acuRun: Resetting message_passing_type to openmp
acuRun: Add C:/Program Files/Altair/2020/hwcfdsolvers/acusolve/win64/bin to PATH
acuRun: set PATH=C:/Program Files/Altair/2020/hwcfdsolvers/acusolve/win64/bin;C:\Program Files\Altair\2020\hwcfdsolvers\acusolve\win64\bin;C:\Program Files\Altair\2020\hwcfdsolvers\acusolve\win64\base\bin;C:\Program Files\Altair\2020\hwcfdsolvers\acusolve\win64\base\DLLs;C:\Program Files\Altair\2020\hwcfdsolvers\acusolve\win64\base\lib\site-packages;C:\Program Files\Altair\2020\hwcfdsolvers\acusolve\win64\abaqus-odb\lib;C:\Program Files\Altair\2020\hwcfdsolvers\acusolve\win64\perl\bin;C:\Program Files\Altair\2020\hwdesktop\common\python\python3.5\win64\DLLs;C:\Program Files\Altair\2020\hwdesktop\hwx\bin\win64;C:\Program Files\Altair\2020\hwdesktop\hw\bin\win64;C:\Program Files (x86)\NVIDIA Corporation\PhysX\Common;C:\Program Files (x86)\Common Files\Oracle\Java\javapath;C:\Program Files\Microsoft MPI\Bin\;C:\Windows\system32;C:\Windows;C:\Windows\System32\Wbem;C:\Windows\System32\WindowsPowerShell\v1.0\;C:\Windows\System32\OpenSSH\;C:\Program Files\MATLAB\R2020b\runtime\win64;C:\Program Files\MATLAB\R2020b\bin;C:\Program Files (x86)\Windows Kits\8.1\Windows Performance Toolkit\;C:\Program Files\Microsoft SQL Server\Client SDK\ODBC\110\Tools\Binn\;C:\Program Files (x86)\Microsoft SQL Server\120\Tools\Binn\;C:\Program Files\Microsoft SQL Server\120\Tools\Binn\;C:\Program Files\Microsoft SQL Server\120\DTS\Binn\;C:\Program Files (x86)\Microsoft SQL Server\120\Tools\Binn\ManagementStudio\;C:\Program Files (x86)\Microsoft SQL Server\120\DTS\Binn\;C:\Users\lerquet1u\AppData\Local\Microsoft\WindowsApps;;C:\Program Files\Altair\2020\hwdesktop\common\python\python3.5\win64\lib\site-packages\pywin32_system32;C:/Program Files/Altair/2020/hwdesktop\hm\bin\win64;C:\Program Files\Altair\2020\hwdesktop\hwx\plugins\hwd\profiles\HyperworksCfd\acusolve\bin\win64
acuRun: Run acuPrep ...
acuRun: "C:/Program Files/Altair/2020/hwcfdsolvers/acusolve/win64/bin/acuPrep".exe -nst 4 -nsd 4 
acuPrep:                       Date = Sun Mar 14 08:24:50 2021
acuPrep:                    Problem = M500D8v1
acuPrep:                        Run = 1
acuPrep:                   Hostname = INSIC-IAO301-07
acuPrep:                   Platform = Windows 8/10 v6.2.9200 x64
acuPrep:                    Machine = win64
acuPrep:                   CPU name = Intel(R) Xeon(R) W-1250P CPU @ 4.10GHz
acuPrep:                  CPU speed = 4100 MHz
acuPrep:                  RAM space = 8127 Mbytes
acuPrep:                 Swap space = 18531 Mbytes
acuPrep:                    Release = 2020.1
acuPrep:               Release date = Aug 21 2020
acuPrep:                  Build Tag = 1030241enyas000_WCL:73428
acuPrep:       Number of subdomains = 4
acuPrep:          Number of threads = 4
acuPrep:  Number of AcuPrep threads = 8
acuPrep:          Working directory = ACUSIM.DIR
acuPrep: ------------------------------------------------------------------
acuPrep: Reading INCLUDE
acuPrep: Processing INCLUDE
acuPrep: INCLUDE: File MESH.DIR/meshsets.inc
acuPrep: Reading COORDINATE
acuPrep: Reading VOLUME_SET( "M500D8v1.SolidBody_1_1.tet4" )
acuPrep: Reading VOLUME_SET( "M500D8v1.SolidBody_1_1.wedge6" )
acuPrep: Reading SURFACE_SET( "M500D8v1.SurfaceSet_2838655795.tria3.SolidBody_1_1.tet4" )
acuPrep: Reading SURFACE_SET( "M500D8v1.SurfaceSet_677566176.tria3.SolidBody_1_1.tet4" )
acuPrep: Reading SURFACE_SET( "M500D8v1.SurfaceSet_4252425245.tria3.SolidBody_1_1.wedge6" )
acuPrep: Reading SURFACE_SET( "M500D8v1.SurfaceSet_2114425791.tria3.SolidBody_1_1.wedge6" )
acuPrep: Reading SURFACE_SET( "M500D8v1.SurfaceSet_2838655795.quad4.SolidBody_1_1.wedge6" )
acuPrep: Reading SURFACE_SET( "M500D8v1.SurfaceSet_677566176.quad4.SolidBody_1_1.wedge6" )
acuPrep: Reading ANALYSIS
acuPrep: Reading EQUATION
acuPrep: Reading AUTO_SOLUTION_STRATEGY
acuPrep: Processing AUTO_SOLUTION_STRATEGY
acuPrep: AUTO_SOLUTION_STRATEGY: creating and including "M500D8v1.ss.inc" ...
acuPrep: Reading TIME_SEQUENCE
acuPrep: Reading STAGGER( "flow" )
acuPrep: Reading STAGGER( "turbulence" )
acuPrep: Reading TIME_INCREMENT
acuPrep: Reading TIME_INTEGRATION
acuPrep: Reading LINEAR_SOLVER_PARAMETERS
acuPrep: Reading CONVERGENCE_CHECK_PARAMETERS
acuPrep: Reading ALGEBRAIC_MULTIGRID_PARAMETERS
acuPrep: Reading TIME_INTEGRATION
acuPrep: *** WARNING: Multiple command issue
acuPrep: Reading DENSITY_MODEL( "Mat500" )
acuPrep: Reading CONDUCTIVITY_MODEL( "Mat500" )
acuPrep: Reading SPECIFIC_HEAT_MODEL( "Mat500" )
acuPrep: Reading VISCOSITY_MODEL( "Mat500" )
acuPrep: Reading MATERIAL_MODEL( "Mat500" )
acuPrep: Reading ELEMENT_SET( "DefaultPart SolidBody_1_1" )
acuPrep: Reading NODAL_INITIAL_CONDITION( "pressure" )
acuPrep: Reading SIMPLE_BOUNDARY_CONDITION( "Default Wall" )
acuPrep: Reading SIMPLE_BOUNDARY_CONDITION( "Outlet" )
acuPrep: Reading SURFACE_OUTPUT( "Outlet - Output" )
acuPrep: Reading SIMPLE_BOUNDARY_CONDITION( "Inlet" )
acuPrep: Reading SURFACE_OUTPUT( "Inlet - Output" )
acuPrep: Reading NODAL_OUTPUT
acuPrep: Reading DERIVED_QUANTITY_OUTPUT
acuPrep: Reading SURFACE_OUTPUT( "entree" )
acuPrep: Reading SURFACE_OUTPUT( "transition" )
acuPrep: Reading SURFACE_OUTPUT( "sortie" )
acuPrep: Reading RUN
acuPrep: Processing RUN
acuPrep: Processing ANALYSIS
acuPrep: Processing EQUATION
acuPrep: Processing FIELD( "none" )
acuPrep: Processing TURBULENCE_MODEL_PARAMETERS
acuPrep: Processing USER_GLOBAL_DATA( "none" )
acuPrep: Processing MULTIPLIER_FUNCTION( "none" )
acuPrep: Processing RADIATION
acuPrep: Processing SOLAR_RADIATION
acuPrep: Processing PARTICLE_TRACE
acuPrep: Processing EXTERNAL_CODE
acuPrep: Processing REFERENCE_FRAME( "none" )
acuPrep: Processing MESH_MOTION( "none" )
acuPrep: Processing OPTIMIZATION
acuPrep: Processing TIME_SEQUENCE
acuPrep: Processing STAGGER( "flow" )
acuPrep: Processing STAGGER( "turbulence" )
acuPrep: Processing TIME_INCREMENT
acuPrep: Processing CONVERGENCE_CHECK_PARAMETERS
acuPrep: Processing ALGEBRAIC_MULTIGRID_PARAMETERS
acuPrep: Processing TIME_INTEGRATION
acuPrep: Processing LINEAR_SOLVER_PARAMETERS
acuPrep: Processing GRAVITY( "none" )
acuPrep: Processing MOMENTUM_SOURCE( "none" )
acuPrep: Processing ROTATION_FORCE( "none" )
acuPrep: Processing MASS_HEAT_SOURCE( "none" )
acuPrep: Processing VOLUME_HEAT_SOURCE( "none" )
acuPrep: Processing MASS_SPECIES_SOURCE( "none" )
acuPrep: Processing VOLUME_SPECIES_SOURCE( "none" )
acuPrep: Processing MASS_FIELD_SOURCE( "none" )
acuPrep: Processing VOLUME_FIELD_SOURCE( "none" )
acuPrep: Processing WAVE_DAMPING_SOURCE
acuPrep: Processing BODY_FORCE( "none" )
acuPrep: Processing DENSITY_MODEL( "none" )
acuPrep: Processing DENSITY_MODEL( "Mat500" )
acuPrep: Processing SPECIFIC_HEAT_MODEL( "none" )
acuPrep: Processing SPECIFIC_HEAT_MODEL( "Mat500" )
acuPrep: Processing VISCOSITY_MODEL( "none" )
acuPrep: Processing VISCOSITY_MODEL( "Mat500" )
acuPrep: Processing VISCOELASTIC_MODEL( "none" )
acuPrep: Processing CONDUCTIVITY_MODEL( "none" )
acuPrep: Processing CONDUCTIVITY_MODEL( "Mat500" )
acuPrep: Processing DIFFUSIVITY_MODEL( "none" )
acuPrep: Processing POROSITY_MODEL( "none" )
acuPrep: Processing MATERIAL_RADIATION_MODEL( "none" )
acuPrep: Processing MATERIAL_MODEL( "none" )
acuPrep: Processing MATERIAL_MODEL( "Mat500" )
acuPrep: Processing SURFACE_TENSION_MODEL( "none" )
acuPrep: Processing CONTACT_ANGLE_MODEL( "none" )
acuPrep: Processing FIELD_INTERACTION_MODEL( "none" )
acuPrep: Processing MULTI_FIELD_MODEL( "none" )
acuPrep: Processing EMISSIVITY_MODEL( "none" )
acuPrep: Processing SOLAR_RADIATION_MODEL( "none" )
acuPrep: Processing COORDINATE
acuPrep: Processing NODAL_INITIAL_CONDITION( "pressure" )
acuPrep: Processing NODAL_OUTPUT
acuPrep: Processing DERIVED_QUANTITY_OUTPUT
acuPrep: Processing RUNNING_AVERAGE_OUTPUT
acuPrep: Processing TIME_AVERAGE_OUTPUT
acuPrep: Processing RESTART_OUTPUT
acuPrep: Processing ERROR_ESTIMATOR_OUTPUT
acuPrep: Processing NODAL_RESIDUAL_OUTPUT
acuPrep: Processing VOLUME_SET( "M500D8v1.SolidBody_1_1.tet4" )
acuPrep: Processing VOLUME_SET( "M500D8v1.SolidBody_1_1.wedge6" )
acuPrep: Processing ELEMENT_SET( "DefaultPart SolidBody_1_1" )
acuPrep: Processing SURFACE_SET( "M500D8v1.SurfaceSet_2838655795.tria3.SolidBody_1_1.tet4" )
acuPrep: Processing SURFACE_SET( "M500D8v1.SurfaceSet_677566176.tria3.SolidBody_1_1.tet4" )
acuPrep: Processing SURFACE_SET( "M500D8v1.SurfaceSet_4252425245.tria3.SolidBody_1_1.wedge6" )
acuPrep: Processing SURFACE_SET( "M500D8v1.SurfaceSet_2114425791.tria3.SolidBody_1_1.wedge6" )
acuPrep: Processing SURFACE_SET( "M500D8v1.SurfaceSet_2838655795.quad4.SolidBody_1_1.wedge6" )
acuPrep: Processing SURFACE_SET( "M500D8v1.SurfaceSet_677566176.quad4.SolidBody_1_1.wedge6" )
acuPrep: Processing FIELD_BOUNDARY_CONDITION( "none" )
acuPrep: Processing SIMPLE_BOUNDARY_CONDITION( "Default Wall" )
acuPrep: Processing SIMPLE_BOUNDARY_CONDITION( "Outlet" )
acuPrep: Processing SIMPLE_BOUNDARY_CONDITION( "Inlet" )
acuPrep: Processing SURFACE_OUTPUT( "Outlet - Output" )
acuPrep: Processing SURFACE_OUTPUT( "Inlet - Output" )
acuPrep: Processing SURFACE_OUTPUT( "entree" )
acuPrep: Processing SURFACE_OUTPUT( "transition" )
acuPrep: Processing SURFACE_OUTPUT( "sortie" )
acuPrep: Processing FWH_OUTPUT
acuPrep: Processing VAO_OUTPUT
acuPrep: Processing AUTO_WALL
acuPrep: ------------------------------------------------------------------
acuPrep:          Minimum coordinates = 8.4111e+000 7.8558e+000 2.0298e+001
acuPrep:          Maximum coordinates = 9.4111e+000 8.8558e+000 4.3298e+001
acuPrep:                  Total nodes =      27362
acuPrep:               Total elements =      82274
acuPrep:                Element aggl. =          1
acuPrep:    Total aggl. rad. surfaces =          0
acuPrep:     Total interface surfaces =          0
acuPrep: ------------------------------------------------------------------
acuPrep:                  Output data = Subdomain 0
acuPrep:                  Output data = Subdomain 1
acuPrep:                  Output data = Subdomain 2
acuPrep:                  Output data = Subdomain 3
acuPrep:                  Output data = Domain decomposition
acuPrep:                  Output data = Surface output
acuPrep: ------------------------------------------------------------------
acuPrep:       Input  CPU/Elapse time = 2.810000e-001 5.800000e-002 Sec
acuPrep:       Proc.  CPU/Elapse time = 6.250000e-001 7.600000e-002 Sec
acuPrep:       Solar  CPU/Elapse time = 0.000000e+000 0.000000e+000 Sec
acuPrep:       DDC    CPU/Elapse time = 6.250000e-001 8.400000e-002 Sec
acuPrep:       Output CPU/Elapse time = 7.500000e-001 9.600000e-002 Sec
acuPrep:       Total  CPU/Elapse time = 2.281000e+000 3.550000e-001 Sec
acuPrep:            Total Memory Size = 4.300000e+001 Mbytes
acuRun: -*-*-*-*-*-*-*-*-*-*-*-*-*-*-*-*-*-*-*-*-*-*-*-*-*-*-*-*-*-*-*-*-
acuRun: No enclosure radiation found: Bypassing acuView
acuRun: -*-*-*-*-*-*-*-*-*-*-*-*-*-*-*-*-*-*-*-*-*-*-*-*-*-*-*-*-*-*-*-*-
acuRun: Run acuSolve ...
acuRun: Add C:/Program Files/Altair/2020/hwcfdsolvers/acusolve/../../mpi/win64/mpich/bin to PATH
acuRun: set PATH=C:/Program Files/Altair/2020/hwcfdsolvers/acusolve/../../mpi/win64/mpich/bin;C:/Program Files/Altair/2020/hwcfdsolvers/acusolve/win64/bin;C:\Program Files\Altair\2020\hwcfdsolvers\acusolve\win64\bin;C:\Program Files\Altair\2020\hwcfdsolvers\acusolve\win64\base\bin;C:\Program Files\Altair\2020\hwcfdsolvers\acusolve\win64\base\DLLs;C:\Program Files\Altair\2020\hwcfdsolvers\acusolve\win64\base\lib\site-packages;C:\Program Files\Altair\2020\hwcfdsolvers\acusolve\win64\abaqus-odb\lib;C:\Program Files\Altair\2020\hwcfdsolvers\acusolve\win64\perl\bin;C:\Program Files\Altair\2020\hwdesktop\common\python\python3.5\win64\DLLs;C:\Program Files\Altair\2020\hwdesktop\hwx\bin\win64;C:\Program Files\Altair\2020\hwdesktop\hw\bin\win64;C:\Program Files (x86)\NVIDIA Corporation\PhysX\Common;C:\Program Files (x86)\Common Files\Oracle\Java\javapath;C:\Program Files\Microsoft MPI\Bin\;C:\Windows\system32;C:\Windows;C:\Windows\System32\Wbem;C:\Windows\System32\WindowsPowerShell\v1.0\;C:\Windows\System32\OpenSSH\;C:\Program Files\MATLAB\R2020b\runtime\win64;C:\Program Files\MATLAB\R2020b\bin;C:\Program Files (x86)\Windows Kits\8.1\Windows Performance Toolkit\;C:\Program Files\Microsoft SQL Server\Client SDK\ODBC\110\Tools\Binn\;C:\Program Files (x86)\Microsoft SQL Server\120\Tools\Binn\;C:\Program Files\Microsoft SQL Server\120\Tools\Binn\;C:\Program Files\Microsoft SQL Server\120\DTS\Binn\;C:\Program Files (x86)\Microsoft SQL Server\120\Tools\Binn\ManagementStudio\;C:\Program Files (x86)\Microsoft SQL Server\120\DTS\Binn\;C:\Users\lerquet1u\AppData\Local\Microsoft\WindowsApps;;C:\Program Files\Altair\2020\hwdesktop\common\python\python3.5\win64\lib\site-packages\pywin32_system32;C:/Program Files/Altair/2020/hwdesktop\hm\bin\win64;C:\Program Files\Altair\2020\hwdesktop\hwx\plugins\hwd\profiles\HyperworksCfd\acusolve\bin\win64
acuRun: set KMP_AFFINITY=scatter
acuRun: set MP_SET_NUMTHREADS=4
acuRun: set OMP_NUM_THREADS=4
acuRun: set OMP_DYNAMIC=FALSE
acuRun: set MPC_GANG=OFF
acuRun: "C:/Program Files/Altair/2020/hwcfdsolvers/acusolve/win64/bin/acuSolve".exe -np 1 -nt 4
acuSolve: AcuSolve checked out license from HyperWorks
acuSolve:                       Date = Sun Mar 14 08:24:52 2021
acuSolve:                    Problem = M500D8v1
acuSolve:                        Run = 1
acuSolve:                      Title = M500D8v1
acuSolve:                   Subtitle = 
acuSolve:                  Base unit = unknown
acuSolve:                   Hostname = INSIC-IAO301-07
acuSolve:                   Platform = Windows 8/10 v6.2.9200 x64
acuSolve:                    Machine = win64
acuSolve:                   CPU name = Intel(R) Xeon(R) W-1250P CPU @ 4.10GHz
acuSolve:                  CPU speed = 4100 MHz
acuSolve:                  RAM space = 7993 Mbytes
acuSolve:                 Swap space = 18531 Mbytes
acuSolve:                    Release = 2020.1
acuSolve:               Release date = Aug 21 2020
acuSolve:                  Build Tag = 1030241enyas000_WCL:73428
acuSolve:       Message passing type = OpenMP
acuSolve:       Number of subdomains = 4
acuSolve:       Number of processors = 4
acuSolve:    Ave subdomain non-zeros = 127441
acuSolve:    Max subdomain non-zeros = 128418
acuSolve:    Interface-node fraction = 0.026
acuSolve:          Working directory = ACUSIM.DIR
acuSolve: ---------------------- Input Phase --------------------------
acuSolve: Input CPU/Elapse time      = 1.624000e+000 1.451000e+000 Sec
acuSolve: Input Memory Usage         = 1.100000e+002 Mbytes
acuSolve: Initializing based on Stokes:
acuSolve:     CGP      No iterations =        164
acuSolve:     CGP        0/1/n norms = 1.337309e-004 1.805003e-004 1.280830e-006
acuSolve:     CGP   Iter. CPU/Elapse = 8.750000e-001 2.200000e-001 
acuSolve:     GMRES    No iterations =       1000 (100.00)
acuSolve:     GMRES      0/1/n norms = 1.688597e-004 4.228390e-002 2.860945e-005
acuSolve:     GMRES Iter. CPU/Elapse = 1.186000e+001 2.977000e+000 
acuSolve: Initializing turbulence field variables
acuSolve:   Eddy visc.   min/ave/max = 9.504823e-004 1.884382e-003 2.000000e-003
acuSolve: Init. CPU/Elapse time      = 1.342200e+001 3.375000e+000 Sec
acuSolve: ---------------------- Begin Time Step ----------------------
acuSolve: Time-Step=    1 ; timeInc= 1.000000e+010 ; time= 0.000000e+000
acuSolve:   Flow stagger "flow": FORM-LHS
acuSolve:     pressure     res ratio = 9.735167e-003
acuSolve:     velocity     res ratio = 1.583311e-001
acuSolve:     CGP      No iterations =        542
acuSolve:     CGP        0/1/n norms = 1.429643e-003 1.611244e-003 1.415797e-005
acuSolve:     CGP   Iter. CPU/Elapse = 2.750000e+000 7.020000e-001 
acuSolve:     GMRES    No iterations =        500 (50.00)
acuSolve:     GMRES      0/1/n norms = 4.281045e-003 9.920589e-003 9.586420e-006
acuSolve:     GMRES Iter. CPU/Elapse = 5.687000e+000 1.419000e+000 
acuSolve:     pressure     sol ratio = 6.355397e+001
acuSolve:     velocity     sol ratio = 1.358083e+000
acuSolve:   Turbulence stagger "turbulence": FORM-LHS
acuSolve:     eddy-visc.   res ratio = 8.179829e-001
acuSolve:     GMRES    No iterations =         10 (0.25)
acuSolve:     GMRES      0/1/n norms = 5.204459e-006 5.204459e-006 5.074185e-008
acuSolve:     GMRES Iter. CPU/Elapse = 0.000000e+000 2.000000e-003 
acuSolve:     eddy-visc.   sol ratio = 6.171946e-001
acuSolve:   CFL timeInc              = 3.688182e-003
acuSolve:   Step CPU/Elapse time     = 9.938000e+000 2.487000e+000 Sec
acuSolve: Time-Step=    2 ; timeInc= 1.000000e+010 ; time= 1.000000e+010
acuSolve:   Flow stagger "flow": FORM-LHS
acuSolve:     pressure     res ratio = 3.371571e-003
acuSolve:     velocity     res ratio = 2.811545e-003
acuSolve:     CGP      No iterations =        271
acuSolve:     CGP        0/1/n norms = 6.945716e-004 1.076054e-003 1.989462e-008
acuSolve:     CGP   Iter. CPU/Elapse = 1.375000e+000 3.450000e-001 
acuSolve:     GMRES    No iterations =        250 (25.00)
acuSolve:     GMRES      0/1/n norms = 2.474434e-003 4.154537e-003 3.347885e-005
acuSolve:     GMRES Iter. CPU/Elapse = 2.812000e+000 7.050000e-001 
acuSolve:     pressure     sol ratio = 1.303785e+000
acuSolve:     velocity     sol ratio = 6.707880e-001
acuSolve:   Turbulence stagger "turbulence": FORM-LHS
acuSolve:     eddy-visc.   res ratio = 8.218666e-001
acuSolve:     GMRES    No iterations =         10 (0.25)
acuSolve:     GMRES      0/1/n norms = 2.522269e-006 2.522269e-006 2.310239e-008
acuSolve:     GMRES Iter. CPU/Elapse = 6.200000e-002 6.000000e-003 
acuSolve:     eddy-visc.   sol ratio = 4.581512e-001
acuSolve:   CFL timeInc              = 3.652342e-003
acuSolve:   Step CPU/Elapse time     = 5.749000e+000 1.424000e+000 Sec
acuSolve: Time-Step=    3 ; timeInc= 1.000000e+010 ; time= 2.000000e+010
acuSolve:   Flow stagger "flow": FORM-LHS
acuSolve:     pressure     res ratio = 1.861023e-003
acuSolve:     velocity     res ratio = 3.406416e-003
acuSolve:     CGP      No iterations =        149
acuSolve:     CGP        0/1/n norms = 3.034356e-004 4.104748e-004 2.869659e-006
acuSolve:     CGP   Iter. CPU/Elapse = 8.130000e-001 2.000000e-001 
acuSolve:     GMRES    No iterations =        125 (12.50)
acuSolve:     GMRES      0/1/n norms = 1.189209e-003 1.714923e-003 2.491623e-005
acuSolve:     GMRES Iter. CPU/Elapse = 1.437000e+000 3.570000e-001 
acuSolve:     pressure     sol ratio = 8.689841e-001
acuSolve:     velocity     sol ratio = 2.676280e-001
acuSolve:   Turbulence stagger "turbulence": FORM-LHS
acuSolve:     eddy-visc.   res ratio = 8.265697e-001
acuSolve:     GMRES    No iterations =         14 (0.35)
acuSolve:     GMRES      0/1/n norms = 1.266637e-006 1.266637e-006 1.220761e-008
acuSolve:     GMRES Iter. CPU/Elapse = 0.000000e+000 7.000000e-003 
acuSolve:     eddy-visc.   sol ratio = 3.214988e-001
acuSolve:   CFL timeInc              = 3.611652e-003
acuSolve:   Step CPU/Elapse time     = 3.750000e+000 9.410000e-001 Sec
acuSolve: Time-Step=    4 ; timeInc= 1.000000e+010 ; time= 3.000000e+010
acuSolve:   Flow stagger "flow": FORM-LHS
acuSolve:     pressure     res ratio = 9.547253e-004
acuSolve:     velocity     res ratio = 2.860940e-003
acuSolve:     CGP      No iterations =         89
acuSolve:     CGP        0/1/n norms = 2.192013e-004 2.997344e-004 2.120257e-006
acuSolve:     CGP   Iter. CPU/Elapse = 5.000000e-001 1.270000e-001 
acuSolve:     GMRES    No iterations =         63 (6.30)
acuSolve:     GMRES      0/1/n norms = 6.482012e-004 7.182626e-004 2.267006e-005
acuSolve:     GMRES Iter. CPU/Elapse = 7.500000e-001 1.810000e-001 
acuSolve:     pressure     sol ratio = 5.222956e-001
acuSolve:     velocity     sol ratio = 9.843798e-002
acuSolve:   Turbulence stagger "turbulence": FORM-LHS
acuSolve:     eddy-visc.   res ratio = 7.180069e-001
acuSolve:     GMRES    No iterations =         20 (0.50)
acuSolve:     GMRES      0/1/n norms = 6.336876e-007 6.336876e-007 6.304264e-009
acuSolve:     GMRES Iter. CPU/Elapse = 6.200000e-002 9.000000e-003 
acuSolve:     eddy-visc.   sol ratio = 2.311764e-001
acuSolve:   CFL timeInc              = 3.603475e-003
acuSolve:   Step CPU/Elapse time     = 2.750000e+000 6.890000e-001 Sec
acuSolve: Time-Step=    5 ; timeInc= 1.000000e+010 ; time= 4.000000e+010
acuSolve:   Flow stagger "flow": FORM-LHS
acuSolve:     pressure     res ratio = 6.689025e-004
acuSolve:     velocity     res ratio = 2.532736e-003
acuSolve:     CGP      No iterations =         80
acuSolve:     CGP        0/1/n norms = 1.510912e-004 1.758016e-004 1.417170e-006
acuSolve:     CGP   Iter. CPU/Elapse = 5.000000e-001 1.170000e-001 
acuSolve:     GMRES    No iterations =         32 (3.20)
acuSolve:     GMRES      0/1/n norms = 3.934397e-004 3.447532e-004 2.966813e-005
acuSolve:     GMRES Iter. CPU/Elapse = 3.750000e-001 9.300000e-002 
acuSolve:     pressure     sol ratio = 9.159311e-002
acuSolve:     velocity     sol ratio = 4.959647e-002
acuSolve:   Turbulence stagger "turbulence": FORM-LHS
acuSolve:     eddy-visc.   res ratio = 5.875554e-001
acuSolve:     GMRES    No iterations =         23 (0.57)
acuSolve:     GMRES      0/1/n norms = 3.818583e-007 3.818583e-007 3.708845e-009
acuSolve:     GMRES Iter. CPU/Elapse = 6.200000e-002 1.000000e-002 
acuSolve:     eddy-visc.   sol ratio = 1.876824e-001
acuSolve:   CFL timeInc              = 3.583679e-003
acuSolve:   Step CPU/Elapse time     = 2.375000e+000 5.950000e-001 Sec
acuSolve: Time-Step=    6 ; timeInc= 1.000000e+010 ; time= 5.000000e+010
acuSolve:   Flow stagger "flow": FORM-LHS
acuSolve:     pressure     res ratio = 6.054421e-004
acuSolve:     velocity     res ratio = 1.988549e-003
acuSolve:     CGP      No iterations =        108
acuSolve:     CGP        0/1/n norms = 1.046797e-004 1.004430e-004 1.036750e-006
acuSolve:     CGP   Iter. CPU/Elapse = 6.250000e-001 1.520000e-001 
acuSolve:     GMRES    No iterations =         29 (2.90)
acuSolve:     GMRES      0/1/n norms = 2.690789e-004 2.190824e-004 2.681037e-005
acuSolve:     GMRES Iter. CPU/Elapse = 3.130000e-001 8.300000e-002 
acuSolve:     pressure     sol ratio = 1.915628e-001
acuSolve:     velocity     sol ratio = 4.708502e-002
acuSolve:   Turbulence stagger "turbulence": FORM-LHS
acuSolve:     eddy-visc.   res ratio = 4.304605e-001
acuSolve:     GMRES    No iterations =         27 (0.68)
acuSolve:     GMRES      0/1/n norms = 2.277568e-007 2.277568e-007 2.274119e-009
acuSolve:     GMRES Iter. CPU/Elapse = 6.200000e-002 1.300000e-002 
acuSolve:     eddy-visc.   sol ratio = 1.575945e-001
acuSolve:   CFL timeInc              = 3.571263e-003
acuSolve:   Step CPU/Elapse time     = 2.500000e+000 6.190000e-001 Sec
acuSolve: Time-Step=    7 ; timeInc= 1.000000e+010 ; time= 6.000000e+010
acuSolve:   Flow stagger "flow": FORM-LHS
acuSolve:     pressure     res ratio = 5.097751e-004
acuSolve:     velocity     res ratio = 1.825374e-003
acuSolve:     CGP      No iterations =        106
acuSolve:     CGP        0/1/n norms = 7.385405e-005 7.765026e-005 7.158754e-007
acuSolve:     CGP   Iter. CPU/Elapse = 6.250000e-001 1.510000e-001 
acuSolve:     GMRES    No iterations =         34 (3.40)
acuSolve:     GMRES      0/1/n norms = 2.113196e-004 1.735257e-004 2.096992e-005
acuSolve:     GMRES Iter. CPU/Elapse = 3.750000e-001 9.600000e-002 
acuSolve:     pressure     sol ratio = 1.240989e-001
acuSolve:     velocity     sol ratio = 4.516563e-002
acuSolve:   Turbulence stagger "turbulence": FORM-LHS
acuSolve:     eddy-visc.   res ratio = 2.904542e-001
acuSolve:     GMRES    No iterations =         34 (0.85)
acuSolve:     GMRES      0/1/n norms = 1.267445e-007 1.267445e-007 1.207273e-009
acuSolve:     GMRES Iter. CPU/Elapse = 6.200000e-002 1.700000e-002 
acuSolve:     eddy-visc.   sol ratio = 1.340732e-001
acuSolve:   CFL timeInc              = 3.565526e-003
acuSolve:   Step CPU/Elapse time     = 2.500000e+000 6.350000e-001 Sec
acuSolve: Time-Step=    8 ; timeInc= 1.000000e+010 ; time= 7.000000e+010
acuSolve:   Flow stagger "flow": FORM-LHS
acuSolve:     pressure     res ratio = 4.010836e-004
acuSolve:     velocity     res ratio = 1.529058e-003
acuSolve:     CGP      No iterations =        107
acuSolve:     CGP        0/1/n norms = 5.233273e-005 5.059791e-005 5.179971e-007
acuSolve:     CGP   Iter. CPU/Elapse = 5.620000e-001 1.510000e-001 
acuSolve:     GMRES    No iterations =         49 (4.90)
acuSolve:     GMRES      0/1/n norms = 1.662226e-004 1.337090e-004 1.649877e-005
acuSolve:     GMRES Iter. CPU/Elapse = 5.630000e-001 1.400000e-001 
acuSolve:     pressure     sol ratio = 1.071282e-001
acuSolve:     velocity     sol ratio = 4.205339e-002
acuSolve:   Turbulence stagger "turbulence": FORM-LHS
acuSolve:     eddy-visc.   res ratio = 1.760364e-001
acuSolve:     GMRES    No iterations =         35 (0.88)
acuSolve:     GMRES      0/1/n norms = 7.190028e-008 7.190028e-008 6.955951e-010
acuSolve:     GMRES Iter. CPU/Elapse = 6.200000e-002 1.700000e-002 
acuSolve:     eddy-visc.   sol ratio = 1.094323e-001
acuSolve:   CFL timeInc              = 3.590094e-003
acuSolve:   Step CPU/Elapse time     = 2.751000e+000 6.770000e-001 Sec
acuSolve: Time-Step=    9 ; timeInc= 1.000000e+010 ; time= 8.000000e+010
acuSolve:   Flow stagger "flow": FORM-LHS
acuSolve:     pressure     res ratio = 3.993451e-004
acuSolve:     velocity     res ratio = 1.263256e-003
acuSolve:     CGP      No iterations =        114
acuSolve:     CGP        0/1/n norms = 3.836790e-005 3.914362e-005 3.589842e-007
acuSolve:     CGP   Iter. CPU/Elapse = 6.250000e-001 1.590000e-001 
acuSolve:     GMRES    No iterations =         60 (6.00)
acuSolve:     GMRES      0/1/n norms = 1.320942e-004 1.201292e-004 1.314674e-005
acuSolve:     GMRES Iter. CPU/Elapse = 6.870000e-001 1.710000e-001 
acuSolve:     pressure     sol ratio = 6.365655e-002
acuSolve:     velocity     sol ratio = 3.547567e-002
acuSolve:   Turbulence stagger "turbulence": FORM-LHS
acuSolve:     eddy-visc.   res ratio = 1.432354e-001
acuSolve:     GMRES    No iterations =         34 (0.85)
acuSolve:     GMRES      0/1/n norms = 4.994364e-008 4.994364e-008 4.864222e-010
acuSolve:     GMRES Iter. CPU/Elapse = 6.300000e-002 1.600000e-002 
acuSolve:     eddy-visc.   sol ratio = 8.478707e-002
acuSolve:   CFL timeInc              = 3.596495e-003
acuSolve:   Step CPU/Elapse time     = 2.812000e+000 7.160000e-001 Sec
acuSolve: Time-Step=   10 ; timeInc= 1.000000e+010 ; time= 9.000000e+010
acuSolve:   Flow stagger "flow": FORM-LHS
acuSolve:     pressure     res ratio = 2.782481e-004
acuSolve:     velocity     res ratio = 1.047010e-003
acuSolve:     CGP      No iterations =        115
acuSolve:     CGP        0/1/n norms = 2.950240e-005 3.387544e-005 2.845725e-007
acuSolve:     CGP   Iter. CPU/Elapse = 6.250000e-001 1.590000e-001 
acuSolve:     GMRES    No iterations =         89 (8.90)
acuSolve:     GMRES      0/1/n norms = 1.011931e-004 9.113961e-005 1.010675e-005
acuSolve:     GMRES Iter. CPU/Elapse = 1.000000e+000 2.530000e-001 
acuSolve:     pressure     sol ratio = 9.635829e-002
acuSolve:     velocity     sol ratio = 2.962550e-002
acuSolve:   Turbulence stagger "turbulence": FORM-LHS
acuSolve:     eddy-visc.   res ratio = 8.724498e-002
acuSolve:     GMRES    No iterations =         27 (0.68)
acuSolve:     GMRES      0/1/n norms = 2.447305e-008 2.447305e-008 2.362604e-010
acuSolve:     GMRES Iter. CPU/Elapse = 0.000000e+000 1.200000e-002 
acuSolve:     eddy-visc.   sol ratio = 5.603839e-002
acuSolve:   CFL timeInc              = 3.575650e-003
acuSolve:   Step CPU/Elapse time     = 3.188000e+000 7.940000e-001 Sec
acuSolve: Time-Step=   11 ; timeInc= 1.000000e+010 ; time= 1.000000e+011
acuSolve:   Flow stagger "flow": FORM-LHS
acuSolve:     pressure     res ratio = 2.254998e-004
acuSolve:     velocity     res ratio = 8.209175e-004
acuSolve:     CGP      No iterations =         92
acuSolve:     CGP        0/1/n norms = 2.311539e-005 2.100190e-005 2.179985e-007
acuSolve:     CGP   Iter. CPU/Elapse = 5.000000e-001 1.320000e-001 
acuSolve:     GMRES    No iterations =         95 (9.50)
acuSolve:     GMRES      0/1/n norms = 7.214485e-005 6.495329e-005 7.188888e-006
acuSolve:     GMRES Iter. CPU/Elapse = 1.062000e+000 2.680000e-001 
acuSolve:     pressure     sol ratio = 6.187751e-002
acuSolve:     velocity     sol ratio = 2.351164e-002
acuSolve:   Turbulence stagger "turbulence": FORM-LHS
acuSolve:     eddy-visc.   res ratio = 5.865679e-002
acuSolve:     GMRES    No iterations =         31 (0.78)
acuSolve:     GMRES      0/1/n norms = 1.469490e-008 1.469490e-008 1.410526e-010
acuSolve:     GMRES Iter. CPU/Elapse = 6.300000e-002 1.400000e-002 
acuSolve:     eddy-visc.   sol ratio = 3.496546e-002
acuSolve:   CFL timeInc              = 3.541768e-003
acuSolve:   Step CPU/Elapse time     = 3.124000e+000 7.840000e-001 Sec
acuSolve: Time-Step=   12 ; timeInc= 1.000000e+010 ; time= 1.100000e+011
acuSolve:   Flow stagger "flow": FORM-LHS
acuSolve:     pressure     res ratio = 1.871481e-004
acuSolve:     velocity     res ratio = 5.401235e-004
acuSolve:     CGP      No iterations =         91
acuSolve:     CGP        0/1/n norms = 1.802331e-005 1.579822e-005 1.798478e-007
acuSolve:     CGP   Iter. CPU/Elapse = 5.000000e-001 1.300000e-001 
acuSolve:     GMRES    No iterations =        141 (14.10)
acuSolve:     GMRES      0/1/n norms = 5.098044e-005 4.677076e-005 5.071111e-006
acuSolve:     GMRES Iter. CPU/Elapse = 1.625000e+000 4.050000e-001 
acuSolve:     pressure     sol ratio = 3.713560e-002
acuSolve:     velocity     sol ratio = 2.133755e-002
acuSolve:   Turbulence stagger "turbulence": FORM-LHS
acuSolve:     eddy-visc.   res ratio = 3.201586e-002
acuSolve:     GMRES    No iterations =         35 (0.88)
acuSolve:     GMRES      0/1/n norms = 8.001282e-009 8.001282e-009 7.787522e-011
acuSolve:     GMRES Iter. CPU/Elapse = 6.200000e-002 1.800000e-002 
acuSolve:     eddy-visc.   sol ratio = 2.007368e-002
acuSolve:   CFL timeInc              = 3.517847e-003
acuSolve:   Step CPU/Elapse time     = 3.688000e+000 9.240000e-001 Sec
acuSolve: Time-Step=   13 ; timeInc= 1.000000e+010 ; time= 1.200000e+011
acuSolve:   Flow stagger "flow": FORM-LHS
acuSolve:     pressure     res ratio = 1.379899e-004
acuSolve:     velocity     res ratio = 4.087478e-004
acuSolve:     CGP      No iterations =         74
acuSolve:     CGP        0/1/n norms = 1.376625e-005 8.717545e-006 1.269748e-007
acuSolve:     CGP   Iter. CPU/Elapse = 5.000000e-001 1.200000e-001 
acuSolve:     GMRES    No iterations =        128 (12.80)
acuSolve:     GMRES      0/1/n norms = 3.611851e-005 3.211594e-005 3.611447e-006
acuSolve:     GMRES Iter. CPU/Elapse = 1.501000e+000 3.790000e-001 
acuSolve:     pressure     sol ratio = 2.389066e-002
acuSolve:     velocity     sol ratio = 1.104845e-002
acuSolve:   Turbulence stagger "turbulence": FORM-LHS
acuSolve:     eddy-visc.   res ratio = 1.927629e-002
acuSolve:     GMRES    No iterations =         35 (0.88)
acuSolve:     GMRES      0/1/n norms = 4.805063e-009 4.805063e-009 4.653352e-011
acuSolve:     GMRES Iter. CPU/Elapse = 1.250000e-001 1.800000e-002 
acuSolve:     eddy-visc.   sol ratio = 1.261222e-002
acuSolve:   CFL timeInc              = 3.507144e-003
acuSolve:   Step CPU/Elapse time     = 3.563000e+000 8.880000e-001 Sec
acuSolve: Time-Step=   14 ; timeInc= 1.000000e+010 ; time= 1.300000e+011
acuSolve:   Flow stagger "flow": FORM-LHS
acuSolve:     pressure     res ratio = 9.418432e-005
acuSolve:     velocity     res ratio = 2.958683e-004
acuSolve:     CGP      No iterations =         94
acuSolve:     CGP        0/1/n norms = 1.063328e-005 6.786509e-006 1.057388e-007
acuSolve:     CGP   Iter. CPU/Elapse = 5.000000e-001 1.350000e-001 
acuSolve:     GMRES    No iterations =        156 (15.60)
acuSolve:     GMRES      0/1/n norms = 2.657212e-005 2.396498e-005 2.655577e-006
acuSolve:     GMRES Iter. CPU/Elapse = 1.813000e+000 4.430000e-001 
acuSolve:     pressure     sol ratio = 1.235636e-002
acuSolve:     velocity     sol ratio = 9.330420e-003
acuSolve:   Turbulence stagger "turbulence": FORM-LHS
acuSolve:     eddy-visc.   res ratio = 1.410130e-002
acuSolve:     GMRES    No iterations =         35 (0.88)
acuSolve:     GMRES      0/1/n norms = 3.465455e-009 3.465455e-009 3.401191e-011
acuSolve:     GMRES Iter. CPU/Elapse = 6.300000e-002 1.800000e-002 
acuSolve:     eddy-visc.   sol ratio = 9.210848e-003
acuSolve:   CFL timeInc              = 3.508004e-003
acuSolve:   Step CPU/Elapse time     = 3.875000e+000 9.660000e-001 Sec
acuSolve: Time-Step=   15 ; timeInc= 1.000000e+010 ; time= 1.400000e+011
acuSolve:   Flow stagger "flow": FORM-LHS
acuSolve:     pressure     res ratio = 7.383956e-005
acuSolve:     velocity     res ratio = 2.227971e-004
acuSolve:     CGP      No iterations =         76
acuSolve:     CGP        0/1/n norms = 9.465110e-006 7.302084e-006 8.988442e-008
acuSolve:     CGP   Iter. CPU/Elapse = 4.380000e-001 1.130000e-001 
acuSolve:     GMRES    No iterations =        164 (16.40)
acuSolve:     GMRES      0/1/n norms = 1.997611e-005 1.740147e-005 1.991432e-006
acuSolve:     GMRES Iter. CPU/Elapse = 1.875000e+000 4.710000e-001 
acuSolve:     pressure     sol ratio = 1.057867e-002
acuSolve:     velocity     sol ratio = 7.137568e-003
acuSolve:   Turbulence stagger "turbulence": FORM-LHS
acuSolve:     eddy-visc.   res ratio = 1.044954e-002
acuSolve:     GMRES    No iterations =         36 (0.90)
acuSolve:     GMRES      0/1/n norms = 2.659044e-009 2.659044e-009 2.575189e-011
acuSolve:     GMRES Iter. CPU/Elapse = 6.200000e-002 1.800000e-002 
acuSolve:     eddy-visc.   sol ratio = 6.214005e-003
acuSolve:   CFL timeInc              = 3.507031e-003
acuSolve:   Step CPU/Elapse time     = 3.875000e+000 9.740000e-001 Sec
acuSolve: Time-Step=   16 ; timeInc= 1.000000e+010 ; time= 1.500000e+011
acuSolve:   Flow stagger "flow": FORM-LHS
acuSolve:     pressure     res ratio = 5.544084e-005
acuSolve:     velocity     res ratio = 1.659976e-004
acuSolve:     CGP      No iterations =         76
acuSolve:     CGP        0/1/n norms = 7.314459e-006 5.475006e-006 6.763586e-008
acuSolve:     CGP   Iter. CPU/Elapse = 4.380000e-001 1.130000e-001 
acuSolve:     GMRES    No iterations =        173 (17.30)
acuSolve:     GMRES      0/1/n norms = 1.618868e-005 1.410999e-005 1.618801e-006
acuSolve:     GMRES Iter. CPU/Elapse = 1.999000e+000 4.940000e-001 
acuSolve:     pressure     sol ratio = 9.441737e-003
acuSolve:     velocity     sol ratio = 7.026274e-003
acuSolve:   Turbulence stagger "turbulence": FORM-LHS
acuSolve:     eddy-visc.   res ratio = 7.922740e-003
acuSolve:     GMRES    No iterations =         41 (1.02)
acuSolve:     GMRES      0/1/n norms = 1.990166e-009 1.990166e-009 1.870049e-011
acuSolve:     GMRES Iter. CPU/Elapse = 1.250000e-001 2.300000e-002 
acuSolve:     eddy-visc.   sol ratio = 4.526563e-003
acuSolve:   CFL timeInc              = 3.506542e-003
acuSolve:   Step CPU/Elapse time     = 4.296000e+000 1.075000e+000 Sec
acuSolve: ----------------------- End Time Step -----------------------
acuSolve: ----------------------- Offset Values -----------------------
acuSolve:            Pressure Offset = 0.000000e+000 
acuSolve:         Temperature Offset = 0.000000e+000 
acuSolve: -------------------------------------------------------------
acuSolve: Input       CPU/Elapse time= 1.504600e+001 4.826000e+000 Sec
acuSolve: Output      CPU/Elapse time= 3.045000e+000 8.000000e-001 Sec
acuSolve: Exchange    CPU/Elapse time= 3.720000e-001 6.800000e-002 Sec
acuSolve: Intf.search CPU/Elapse time= 0.000000e+000 0.000000e+000 Sec
acuSolve: Flow stagger "flow":
acuSolve:   No of res/lhs formations =           16           16
acuSolve:   Elem.Form CPU/Elapse time= 9.811000e+000 2.390000e+000 Sec
acuSolve:   Solution  CPU/Elapse time= 3.668800e+001 9.168000e+000 Sec
acuSolve: Turbulence stagger "turbulence":
acuSolve:   No of res/lhs formations =           16           16
acuSolve:   Elem.Form CPU/Elapse time= 5.752000e+000 1.473000e+000 Sec
acuSolve:   Solution  CPU/Elapse time= 1.751000e+000 4.220000e-001 Sec
acuSolve: LnSlv. (host)   Elapse time= 9.182000e+000 Sec
acuSolve: Total CPU/Elapse time      = 7.578000e+001 2.001400e+001 Sec
acuSolve: Total Memory Usage         = 1.120000e+002 Mbytes
acuRun: -*-*-*-*-*-*-*-*-*-*-*-*-*-*-*-*-*-*-*-*-*-*-*-*-*-*-*-*-*-*-*-*-
acuTrans:  Variable                         Min           Max           Ave
acuTrans: x_coordinates                  8.411060e+000 9.411057e+000 8.911025e+000
acuTrans: y_coordinates                  7.855769e+000 8.855769e+000 8.352287e+000
acuTrans: z_coordinates                  2.029768e+001 4.329768e+001 3.209672e+001
acuTrans: x_velocity                     -7.561236e-002 8.428633e-002 2.555037e-005
acuTrans: y_velocity                     -7.903083e-002 8.836068e-002 2.829261e-005
acuTrans: z_velocity                     -3.025078e-001 1.086320e+000 5.008185e-001
acuTrans: pressure                       -1.033850e+002 3.236852e+001 1.186017e+001
acuTrans: eddy_viscosity                 0.000000e+000 1.688721e-003 6.215290e-004
acuTrans: surface_y_plus                 0.000000e+000 3.222571e+001 2.198695e+000
acuTrans: surface_film_coefficient       0.000000e+000 2.008340e+000 1.338425e-001
acuTrans: x_wall_shear_stress            -1.170735e-001 8.556415e-002 1.992950e-005
acuTrans: y_wall_shear_stress            -1.069400e-001 9.774915e-002 3.024791e-005
acuTrans: z_wall_shear_stress            -3.130584e-001 2.128786e+000 7.541646e-002
acuRun: -*-*-*-*-*-*-*-*-*-*-*-*-*-*-*-*-*-*-*-*-*-*-*-*-*-*-*-*-*-*-*-*-
acuRun: Sun Mar 14 08:25:11 2021
