acuRun: Fri Mar  5 17:06:22 2021
acuRun: acuRun 
acuRun: Processing run 1 ...
acuRun: Hostname = Surface_Maxime
acuRun: Release  = 2018
acuRun: Core auto detection found 8 cores
acuRun: num_threads is reduced from (8) to (4)
acuRun: Reseting num_subdomains to 4
acuRun: num_processors (4) equal to num_threads (4)
acuRun: Reseting message_passing_type to openmp
acuRun: Add C:/Program Files/Altair/2018/acusolve/win64/bin to PATH
acuRun: set PATH=C:/Program Files/Altair/2018/acusolve/win64/bin;C:\Program Files\Altair\2018\acusolve\win64\bin;C:\Program Files\Altair\2018\acusolve\win64\base\bin;C:\Program Files\Altair\2018\acusolve\win64\base\DLLs;C:\Program Files\Altair\2018\acusolve\win64\base\lib\site-packages;C:\Program Files\Altair\2018\acusolve\win64\abaqus-odb\lib;C:\Program Files\Altair\2018\acusolve\win64\perl\bin;C:\Program Files\Altair\2020-edu\hwdesktop\common\python\python3.5\win64\DLLs;C:\Program Files\Altair\2020-edu\hwdesktop\hwx\bin\win64;C:\Program Files\Altair\2020-edu\hwdesktop\hw\bin\win64;C:\Program Files (x86)\Common Files\Oracle\Java\javapath;C:\WINDOWS\system32;C:\WINDOWS;C:\WINDOWS\System32\Wbem;C:\WINDOWS\System32\WindowsPowerShell\v1.0\;C:\WINDOWS\System32\OpenSSH\;C:\Program Files\Git\cmd;C:\Program Files\Microsoft SQL Server\Client SDK\ODBC\110\Tools\Binn\;C:\Program Files (x86)\Microsoft SQL Server\120\Tools\Binn\;C:\Program Files\Microsoft SQL Server\120\Tools\Binn\;C:\Program Files\Microsoft SQL Server\120\DTS\Binn\;C:\Program Files (x86)\Gpg4win\..\GnuPG\bin;C:\Program Files\Git LFS;C:\Users\Maxime Belcour\AppData\Local\Microsoft\WindowsApps;C:\Program Files\flutter\bin;C:\Users\Maxime Belcour\AppData\Local\atom\bin;C:\Users\Maxime Belcour\AppData\Local\Microsoft\WindowsApps;C:\Users\Maxime Belcour\AppData\Local\Programs\Microsoft VS Code\bin;C:\Users\Maxime Belcour\AppData\Local\gitkraken\bin;C:\Users\Maxime Belcour\AppData\Local\GitHubDesktop\bin;C:\Program Files\Altair\2020-edu\hwdesktop\common\python\python3.5\win64\lib\site-packages\pywin32_system32;C:/Program Files/Altair/2020-edu/hwdesktop\hm\bin\win64;C:\Program Files\Altair\2020-edu\hwdesktop\hwx\plugins\hwd\profiles\HyperworksCfd\acusolve\bin\win64
acuRun: Run acuPrep ...
acuRun: "C:/Program Files/Altair/2018/acusolve/win64/bin/acuPrep".exe -nst 4 -nsd 4 
acuPrep:                         Date = Fri Mar 05 17:06:22 2021
acuPrep:                      Problem = CFDAnalysis
acuPrep:                          Run = 1
acuPrep:                     Hostname = SURFACE_MAXIME
acuPrep:                     Platform = Whistler 6.2 unknown
acuPrep:                      Machine = win64
acuPrep:                      Release = 2018
acuPrep:                 Release date = Oct 18 2018
acuPrep:                    Build Tag = 0937950enyas000_WCL:64185
acuPrep:         Number of subdomains = 4
acuPrep:            Number of threads = 4
acuPrep:            Working directory = ACUSIM.DIR
acuPrep: ------------------------------------------------------------------
acuPrep: Reading INCLUDE
acuPrep: Processing INCLUDE
acuPrep: INCLUDE: File MESH.DIR/meshsets.inc
acuPrep: Reading COORDINATE
acuPrep: Reading VOLUME_SET( "CFDAnalysis.SolidBody_1_1.tet4" )
acuPrep: Reading VOLUME_SET( "CFDAnalysis.SolidBody_1_1.wedge6" )
acuPrep: Reading SURFACE_SET( "CFDAnalysis.SurfaceSet_1368609086.tria3.SolidBody_1_1.tet4" )
acuPrep: Reading SURFACE_SET( "CFDAnalysis.SurfaceSet_2838655795.tria3.SolidBody_1_1.tet4" )
acuPrep: Reading SURFACE_SET( "CFDAnalysis.SurfaceSet_1262928306.tria3.SolidBody_1_1.wedge6" )
acuPrep: Reading SURFACE_SET( "CFDAnalysis.SurfaceSet_1368609086.quad4.SolidBody_1_1.wedge6" )
acuPrep: Reading SURFACE_SET( "CFDAnalysis.SurfaceSet_2838655795.quad4.SolidBody_1_1.wedge6" )
acuPrep: Reading ANALYSIS
acuPrep: Reading EQUATION
acuPrep: Reading AUTO_SOLUTION_STRATEGY
acuPrep: Processing AUTO_SOLUTION_STRATEGY
acuPrep: AUTO_SOLUTION_STRATEGY: creating and including "CFDAnalysis.ss.inc" ...
acuPrep: Reading TIME_SEQUENCE
acuPrep: Reading STAGGER( "flow" )
acuPrep: Reading STAGGER( "turbulence" )
acuPrep: Reading TIME_INCREMENT
acuPrep: Reading TIME_INTEGRATION
acuPrep: Reading LINEAR_SOLVER_PARAMETERS
acuPrep: Reading CONVERGENCE_CHECK_PARAMETERS
acuPrep: Reading ALGEBRAIC_MULTIGRID_PARAMETERS
acuPrep: Reading TIME_INTEGRATION
acuPrep: *** WARNING: Multiple command issue
acuPrep: Reading DENSITY_MODEL( "Water" )
acuPrep: Reading CONDUCTIVITY_MODEL( "Water" )
acuPrep: Reading SPECIFIC_HEAT_MODEL( "Water" )
acuPrep: Reading VISCOSITY_MODEL( "Water" )
acuPrep: Reading MATERIAL_MODEL( "Water" )
acuPrep: Reading ELEMENT_SET( "DefaultPart SolidBody_1_1" )
acuPrep: Reading NODAL_INITIAL_CONDITION( "pressure" )
acuPrep: Reading SIMPLE_BOUNDARY_CONDITION( "Default Wall" )
acuPrep: Reading SIMPLE_BOUNDARY_CONDITION( "Inlet" )
acuPrep: Reading SURFACE_OUTPUT( "Inlet - Output" )
acuPrep: Reading SIMPLE_BOUNDARY_CONDITION( "Outlet" )
acuPrep: Reading SURFACE_OUTPUT( "Outlet - Output" )
acuPrep: Reading NODAL_OUTPUT
acuPrep: Reading SURFACE_OUTPUT( "Sortie" )
acuPrep: Reading SURFACE_OUTPUT( "Entree" )
acuPrep: Reading RUN
acuPrep: Processing RUN
acuPrep: Processing ANALYSIS
acuPrep: Processing EQUATION
acuPrep: Processing FIELD( "none" )
acuPrep: Processing TURBULENCE_MODEL_PARAMETERS
acuPrep: Processing USER_GLOBAL_DATA( "none" )
acuPrep: Processing MULTIPLIER_FUNCTION( "none" )
acuPrep: Processing RADIATION
acuPrep: Processing SOLAR_RADIATION
acuPrep: Processing PARTICLE_TRACE
acuPrep: Processing EXTERNAL_CODE
acuPrep: Processing REFERENCE_FRAME( "none" )
acuPrep: Processing MESH_MOTION( "none" )
acuPrep: Processing OPTIMIZATION
acuPrep: Processing TIME_SEQUENCE
acuPrep: Processing STAGGER( "flow" )
acuPrep: Processing STAGGER( "turbulence" )
acuPrep: Processing TIME_INCREMENT
acuPrep: Processing CONVERGENCE_CHECK_PARAMETERS
acuPrep: Processing ALGEBRAIC_MULTIGRID_PARAMETERS
acuPrep: Processing TIME_INTEGRATION
acuPrep: Processing LINEAR_SOLVER_PARAMETERS
acuPrep: Processing GRAVITY( "none" )
acuPrep: Processing MOMENTUM_SOURCE( "none" )
acuPrep: Processing ROTATION_FORCE( "none" )
acuPrep: Processing MASS_HEAT_SOURCE( "none" )
acuPrep: Processing VOLUME_HEAT_SOURCE( "none" )
acuPrep: Processing MASS_SPECIES_SOURCE( "none" )
acuPrep: Processing VOLUME_SPECIES_SOURCE( "none" )
acuPrep: Processing MASS_FIELD_SOURCE( "none" )
acuPrep: Processing VOLUME_FIELD_SOURCE( "none" )
acuPrep: Processing WAVE_DAMPING_SOURCE
acuPrep: Processing BODY_FORCE( "none" )
acuPrep: Processing DENSITY_MODEL( "none" )
acuPrep: Processing DENSITY_MODEL( "Water" )
acuPrep: Processing SPECIFIC_HEAT_MODEL( "none" )
acuPrep: Processing SPECIFIC_HEAT_MODEL( "Water" )
acuPrep: Processing VISCOSITY_MODEL( "none" )
acuPrep: Processing VISCOSITY_MODEL( "Water" )
acuPrep: Processing VISCOELASTIC_MODEL( "none" )
acuPrep: Processing CONDUCTIVITY_MODEL( "none" )
acuPrep: Processing CONDUCTIVITY_MODEL( "Water" )
acuPrep: Processing DIFFUSIVITY_MODEL( "none" )
acuPrep: Processing POROSITY_MODEL( "none" )
acuPrep: Processing MATERIAL_RADIATION_MODEL( "none" )
acuPrep: Processing MATERIAL_MODEL( "none" )
acuPrep: Processing MATERIAL_MODEL( "Water" )
acuPrep: Processing SURFACE_TENSION_MODEL( "none" )
acuPrep: Processing CONTACT_ANGLE_MODEL( "none" )
acuPrep: Processing FIELD_INTERACTION_MODEL( "none" )
acuPrep: Processing MULTI_FIELD_MODEL( "none" )
acuPrep: Processing EMISSIVITY_MODEL( "none" )
acuPrep: Processing SOLAR_RADIATION_MODEL( "none" )
acuPrep: Processing COORDINATE
acuPrep: Processing NODAL_INITIAL_CONDITION( "pressure" )
acuPrep: Processing NODAL_OUTPUT
acuPrep: Processing DERIVED_QUANTITY_OUTPUT
acuPrep: Processing RUNNING_AVERAGE_OUTPUT
acuPrep: Processing TIME_AVERAGE_OUTPUT
acuPrep: Processing RESTART_OUTPUT
acuPrep: Processing ERROR_ESTIMATOR_OUTPUT
acuPrep: Processing NODAL_RESIDUAL_OUTPUT
acuPrep: Processing VOLUME_SET( "CFDAnalysis.SolidBody_1_1.tet4" )
acuPrep: Processing VOLUME_SET( "CFDAnalysis.SolidBody_1_1.wedge6" )
acuPrep: Processing ELEMENT_SET( "DefaultPart SolidBody_1_1" )
acuPrep: Processing SURFACE_SET( "CFDAnalysis.SurfaceSet_1368609086.tria3.SolidBody_1_1.tet4" )
acuPrep: Processing SURFACE_SET( "CFDAnalysis.SurfaceSet_2838655795.tria3.SolidBody_1_1.tet4" )
acuPrep: Processing SURFACE_SET( "CFDAnalysis.SurfaceSet_1262928306.tria3.SolidBody_1_1.wedge6" )
acuPrep: Processing SURFACE_SET( "CFDAnalysis.SurfaceSet_1368609086.quad4.SolidBody_1_1.wedge6" )
acuPrep: Processing SURFACE_SET( "CFDAnalysis.SurfaceSet_2838655795.quad4.SolidBody_1_1.wedge6" )
acuPrep: Processing FIELD_BOUNDARY_CONDITION( "none" )
acuPrep: Processing SIMPLE_BOUNDARY_CONDITION( "Default Wall" )
acuPrep: Processing SIMPLE_BOUNDARY_CONDITION( "Inlet" )
acuPrep: Processing SIMPLE_BOUNDARY_CONDITION( "Outlet" )
acuPrep: Processing SURFACE_OUTPUT( "Inlet - Output" )
acuPrep: Processing SURFACE_OUTPUT( "Outlet - Output" )
acuPrep: Processing SURFACE_OUTPUT( "Sortie" )
acuPrep: Processing SURFACE_OUTPUT( "Entree" )
acuPrep: Processing FWH_OUTPUT
acuPrep: Processing VAO_OUTPUT
acuPrep: Processing AUTO_WALL
acuPrep: ------------------------------------------------------------------
acuPrep:          Minimum coordinates = -4.0850e+000 9.9434e-001 -6.7023e+000
acuPrep:          Maximum coordinates = 5.9150e+000 1.0994e+001 1.3298e+001
acuPrep:                  Total nodes =    2201386
acuPrep:               Total elements =   11867804
acuPrep:                Element aggl. =          1
acuPrep:    Total aggl. rad. surfaces =          0
acuPrep:     Total interface surfaces =          0
acuPrep: ------------------------------------------------------------------
acuPrep:                  Output data = Subdomain 0
acuPrep:                  Output data = Subdomain 1
acuPrep:                  Output data = Subdomain 2
acuPrep:                  Output data = Subdomain 3
acuPrep:                  Output data = Domain decomposition
acuPrep:                  Output data = Surface output
acuPrep: ------------------------------------------------------------------
acuPrep:       Input  CPU/Elapse time = 6.100000e-002 5.500000e-002 Sec
acuPrep:       Proc.  CPU/Elapse time = 5.521900e+001 5.555800e+001 Sec
acuPrep:       Solar  CPU/Elapse time = 0.000000e+000 0.000000e+000 Sec
acuPrep:       DDC    CPU/Elapse time = 2.735900e+001 2.741200e+001 Sec
acuPrep:       Output CPU/Elapse time = 1.320400e+001 1.337100e+001 Sec
acuPrep:       Total  CPU/Elapse time = 9.584300e+001 9.639600e+001 Sec
acuPrep:            Total Memory Size = 4.171012e+003 Mbytes
acuRun: -*-*-*-*-*-*-*-*-*-*-*-*-*-*-*-*-*-*-*-*-*-*-*-*-*-*-*-*-*-*-*-*-
acuRun: No enclosure radiation found: Bypassing acuView
acuRun: -*-*-*-*-*-*-*-*-*-*-*-*-*-*-*-*-*-*-*-*-*-*-*-*-*-*-*-*-*-*-*-*-
acuRun: Run acuSolve ...
acuRun: Add C:/Program Files/Altair/2018/acusolve/../mpi/win64/mpich/bin to PATH
acuRun: set PATH=C:/Program Files/Altair/2018/acusolve/../mpi/win64/mpich/bin;C:/Program Files/Altair/2018/acusolve/win64/bin;C:\Program Files\Altair\2018\acusolve\win64\bin;C:\Program Files\Altair\2018\acusolve\win64\base\bin;C:\Program Files\Altair\2018\acusolve\win64\base\DLLs;C:\Program Files\Altair\2018\acusolve\win64\base\lib\site-packages;C:\Program Files\Altair\2018\acusolve\win64\abaqus-odb\lib;C:\Program Files\Altair\2018\acusolve\win64\perl\bin;C:\Program Files\Altair\2020-edu\hwdesktop\common\python\python3.5\win64\DLLs;C:\Program Files\Altair\2020-edu\hwdesktop\hwx\bin\win64;C:\Program Files\Altair\2020-edu\hwdesktop\hw\bin\win64;C:\Program Files (x86)\Common Files\Oracle\Java\javapath;C:\WINDOWS\system32;C:\WINDOWS;C:\WINDOWS\System32\Wbem;C:\WINDOWS\System32\WindowsPowerShell\v1.0\;C:\WINDOWS\System32\OpenSSH\;C:\Program Files\Git\cmd;C:\Program Files\Microsoft SQL Server\Client SDK\ODBC\110\Tools\Binn\;C:\Program Files (x86)\Microsoft SQL Server\120\Tools\Binn\;C:\Program Files\Microsoft SQL Server\120\Tools\Binn\;C:\Program Files\Microsoft SQL Server\120\DTS\Binn\;C:\Program Files (x86)\Gpg4win\..\GnuPG\bin;C:\Program Files\Git LFS;C:\Users\Maxime Belcour\AppData\Local\Microsoft\WindowsApps;C:\Program Files\flutter\bin;C:\Users\Maxime Belcour\AppData\Local\atom\bin;C:\Users\Maxime Belcour\AppData\Local\Microsoft\WindowsApps;C:\Users\Maxime Belcour\AppData\Local\Programs\Microsoft VS Code\bin;C:\Users\Maxime Belcour\AppData\Local\gitkraken\bin;C:\Users\Maxime Belcour\AppData\Local\GitHubDesktop\bin;C:\Program Files\Altair\2020-edu\hwdesktop\common\python\python3.5\win64\lib\site-packages\pywin32_system32;C:/Program Files/Altair/2020-edu/hwdesktop\hm\bin\win64;C:\Program Files\Altair\2020-edu\hwdesktop\hwx\plugins\hwd\profiles\HyperworksCfd\acusolve\bin\win64
acuRun: set KMP_AFFINITY=scatter
acuRun: set MP_SET_NUMTHREADS=4
acuRun: set OMP_NUM_THREADS=4
acuRun: set OMP_DYNAMIC=FALSE
acuRun: set MPC_GANG=OFF
acuRun: "C:/Program Files/Altair/2018/acusolve/win64/bin/acuSolve".exe -np 1 -nt 4
acuSolve: Successfully checked out HyperWorksEDU for Acusolve
acuSolve:                       Date = Fri Mar 05 17:08:24 2021
acuSolve:                    Problem = CFDAnalysis
acuSolve:                        Run = 1
acuSolve:                      Title = CFDAnalysis
acuSolve:                   Subtitle = 
acuSolve:                  Base unit = unknown
acuSolve:                   Hostname = SURFACE_MAXIME
acuSolve:                   Platform = Whistler 6.2 unknown
acuSolve:                    Machine = win64
acuSolve:                   CPU name = Intel(R) Core(TM) i7-1065G7 CPU @ 1.30GHz
acuSolve:                  CPU speed = 1500 MHz
acuSolve:                  RAM space = 17239 Mbytes
acuSolve:                 Swap space = 37217 Mbytes
acuSolve:                    Release = 2018
acuSolve:               Release date = Oct 18 2018
acuSolve:                  Build Tag = 0937950enyas000_WCL:64185
acuSolve:       Message passing type = OpenMP
acuSolve:       Number of subdomains = 4
acuSolve:       Number of processors = 4
acuSolve:    Ave subdomain non-zeros = 9200762
acuSolve:    Max subdomain non-zeros = 9292185
acuSolve:    Interface-node fraction = 0.033
acuSolve:          Working directory = ACUSIM.DIR
acuSolve: 
acuSolve: ---------------------- Input Phase --------------------------
acuSolve: Input CPU/Elapse time      = 2.979600e+001 2.583600e+001 Sec
acuSolve: Input Memory Usage         = 5.471160e+003 Mbytes
acuSolve: ---------------------- Begin Time Step ----------------------
acuSolve: *** ERROR: Number of nodes <2201386> exceed 500000 limit for EDU license
acuRun: *** ERROR: error occurred executing acuSolve"
acuRun: Fri Mar  5 17:08:26 2021
